    1 ---          .58  .04   .70  .03   .72  .03   .91  .03   .96  .03   .96  .03   .95  .03   .99  .03  1.00  .03   .96  .03   .96  .03   .98 -.99   .97  .03   .96  .03   .97  .03   .95  .03  1.03  .03   .91  .03   .91  .03   .98  .03   .92  .03   .98  .03   .90  .03   .90  .03 -9.99 -.99 -9.99 -.99 1979-06-20 1 0
    2 ---          .82  .03   .87  .03   .86  .03   .98  .03   .98  .03   .99  .03   .98  .03   .99  .03  1.00  .03  1.00  .03  1.00  .03   .99  .03   .97  .03   .98  .03   .96  .03  1.01  .03   .89  .03   .91  .03   .93  .03   .94  .03   .95  .03   .88  .03   .91  .03   .88  .03 -9.99 -.99 -9.99 -.99 1979-06-20 1 0
    3 ---          .58  .09   .63  .08   .71  .05   .75  .03   .77  .04   .88  .03   .91  .03   .99  .03  1.00  .03  1.02  .03  1.11  .03  1.15  .03  1.20  .03  1.14  .04  1.20  .04  1.19  .03 -9.99 -.99  1.08  .03  1.05  .03 -9.99 -.99  1.07  .03 -9.99 -.99  1.08  .03 -9.99 -.99  1.17  .05  1.08  .08 1979-06-20 1 0
    4 ---        -9.99 -.99 -9.99 -.99 -9.99 -.99   .82  .03   .86  .03   .93  .03   .93  .03   .99  .03  1.00  .03  1.03  .03  1.07  .03  1.05  .03  1.10  .03  1.10  .03  1.09  .04  1.02  .03 -9.99 -.99   .87  .03   .78  .03 -9.99 -.99   .79  .03 -9.99 -.99   .86  .03 -9.99 -.99   .97  .03  1.16  .15 1979-06-20 1 0
    5 ---        -9.99 -.99   .52  .10   .80  .10   .76  .03   .75  .03   .84  .03   .83  .03   .90  .03  1.02  .03  1.07  .03  1.12  .03  1.18  .03  1.15  .05  1.23  .03  1.21  .03  1.31  .03 -9.99 -.99  1.22  .04  1.12  .03 -9.99 -.99  1.12  .04 -9.99 -.99  1.25  .04 -9.99 -.99  1.25  .05 -9.99 -.99 1979-06-20 1 0
    6 ---          .55  .03   .60  .06   .70  .05   .75  .03   .73  .03   .84  .03   .83  .03   .94  .03   .99  .03  1.01  .03  1.08  .03  1.04  .06  1.08  .03  1.15  .04  1.16  .05  1.15  .04 -9.99 -.99  1.06  .06  1.02  .03 -9.99 -.99  1.04  .03 -9.99 -.99  1.07  .03 -9.99 -.99  1.19  .03  1.27  .03 1979-06-20 1 0
    7 ---          .50  .05   .63  .07   .62  .03   .73  .03   .73  .03   .87  .03   .89  .03   .96  .03  1.00  .03  1.08  .03  1.12  .03  1.16  .07  1.15  .03  1.21  .09  1.29  .09  1.25  .03 -9.99 -.99  1.06  .03  1.12  .03 -9.99 -.99  1.15  .03 -9.99 -.99  1.12  .03 -9.99 -.99  1.13  .04 -9.99 -.99 1979-06-20 1 0
    8 ---          .48  .09   .54  .04   .64  .05   .66  .03   .72  .03   .81  .03   .86  .03   .94  .03  1.00  .03  1.06  .03  1.09  .03  1.14  .08  1.20  .03  1.18  .03  1.19  .03  1.20  .04  1.14  .04  1.11  .03  1.03  .04  1.09  .03  1.00  .05   .98  .03  1.07  .05  1.23  .06 -9.99 -.99 -9.99 -.99 1979-06-20 1 0
    9 ---          .52  .06   .50  .03   .63  .03   .73  .03   .76  .03   .85  .03   .90  .03   .96  .03  1.00  .03  1.03  .03  1.10  .03  1.11  .09  1.14  .03  1.15  .03  1.19  .03  1.22  .07 -9.99 -.99 -9.99 -.99  1.17  .03 -9.99 -.99  1.18  .04 -9.99 -.99  1.25  .08  1.04  .18  1.31  .15 -9.99 -.99 1979-06-20 1 0
   10 ---          .72  .05   .78  .07   .80  .05   .92  .03   .90  .03   .96  .03   .97  .03  1.01  .03  1.00  .03   .98  .03  1.03  .03  1.03 -.99  1.05  .03  1.02  .03  1.02  .03  1.00  .03   .99  .03   .96  .03   .95  .04   .96  .03 -9.99 -.99   .91  .03   .91  .04   .91  .03   .95  .03 -9.99 -.99 1979-06-20 1 0
   11 ---          .57  .08   .61  .09   .64  .04   .75  .03   .77  .03   .86  .03   .91  .03   .97  .03  1.00  .03  1.06  .03  1.11  .03  1.11  .01  1.14  .03  1.15  .03  1.18  .03  1.17  .03 -9.99 -.99  1.07  .06  1.09  .04 -9.99 -.99  1.14  .08 -9.99 -.99  1.12  .05 -9.99 -.99  1.19  .08 -9.99 -.99 1979-06-20 1 0
   12 ---          .40  .03   .51  .08   .56  .04   .72  .03   .80  .03   .85  .03   .91  .03   .96  .03  1.00  .03  1.02  .03  1.07  .04  1.13  .02  1.15  .03  1.17  .03  1.20  .05  1.25  .03  1.17  .03  1.21  .10  1.24  .03  1.10  .06  1.32  .08  1.22  .05  1.33  .05 -9.99 -.99  1.15  .15 -9.99 -.99 1979-06-20 1 0
   13 ---          .40  .17   .58  .13   .50  .08   .81  .04   .92  .09  1.09  .04   .93  .05  1.01  .03  1.00  .03   .95  .05   .96  .03   .98  .03   .91  .05   .95  .04   .97  .03   .92  .05 -9.99 -.99   .99  .06   .86  .06 -9.99 -.99   .93  .04 -9.99 -.99   .87  .03 -9.99 -.99  1.01  .05   .80  .09 1979-06-20 1 0
   14 ---          .58  .03   .63  .08   .64  .05   .75  .03   .78  .03   .86  .03   .90  .03   .96  .03  1.00  .03  1.04  .03  1.08  .03  1.11  .04  1.17  .03  1.14  .03  1.18  .03  1.17  .03  1.18  .03  1.07  .03  1.04  .05  1.02  .03 -9.99 -.99  1.05  .03  1.14  .04  1.21  .05  1.23  .05 -9.99 -.99 1979-06-20 1 0
   15 ---          .53  .08   .63  .03   .68  .03   .73  .03   .78  .03   .88  .03   .88  .03   .97  .03  1.00  .03  1.05  .03  1.09  .03  1.06  .05  1.17  .03  1.16  .03  1.18  .03  1.14  .03 -9.99 -.99  1.07  .03  1.11  .03 -9.99 -.99  1.11  .03 -9.99 -.99  1.05  .04 -9.99 -.99  1.13  .06  1.13  .08 1979-06-20 1 0
   16 ---          .87  .06   .86  .06   .86  .06   .90  .04   .94  .04   .95  .03   .99  .04   .96  .04  1.02  .03  1.01  .04  1.08  .05  1.09  .06  1.12  .04  1.10  .03  1.14  .05  1.13  .06  1.15  .05  1.12  .04  1.10  .04 -9.99 -.99  1.16  .06 -9.99 -.99  1.23  .04 -9.99 -.99  1.25  .07  1.22  .11 1979-06-20 1 0
   17 ---          .53  .20   .55  .18   .58  .06   .68  .03   .71  .03   .80  .03   .85  .03   .95  .03  1.00  .03  1.06  .03  1.14  .03  1.13  .07  1.17  .03  1.17  .03  1.21  .03  1.20  .08 -9.99 -.99  1.07  .08  1.07  .08 -9.99 -.99  1.13  .10 -9.99 -.99  1.11  .10 -9.99 -.99  1.22  .12  1.25  .20 1979-06-20 1 0
   18 ---          .51  .06   .62  .07   .75  .06   .70  .03   .76  .03   .87  .03   .91  .03   .95  .03  1.00  .03  1.03  .03  1.08  .03  1.12  .08  1.15  .03  1.16  .03  1.17  .03  1.08  .06 -9.99 -.99   .99  .08  1.05  .05 -9.99 -.99  1.04  .05 -9.99 -.99  1.15  .06   .98  .10  1.30  .12 -9.99 -.99 1979-06-20 1 0
   19 ---          .90  .16   .69  .13   .83  .09   .86  .03   .89  .03   .95  .03   .96  .03  1.01  .03  1.00  .03   .99  .03   .99  .03   .98  .09   .96  .03   .95  .03   .97  .03   .93  .03 -9.99 -.99 -9.99 -.99   .95  .03 -9.99 -.99   .95  .05 -9.99 -.99   .93  .04   .94  .08  1.06  .10 -9.99 -.99 1979-06-20 1 0
   20 ---          .62  .03 -9.99 -.99   .68  .03   .76  .03   .80  .03   .86  .03   .89  .03   .96  .03  1.00  .03  1.01  .03  1.04  .03  1.09  .03  1.13 -.99  1.15  .03  1.15  .03  1.13  .03  1.07  .03  1.01  .03  1.01  .04  1.05  .06 -9.99 -.99  1.10  .05  1.07  .03  1.10  .03  1.08  .03 -9.99 -.99 1979-06-20 1 0
   21 ---          .83  .18   .85  .10   .86  .08   .92  .03   .90  .03   .94  .03   .95  .03   .97  .03  1.00  .03  1.02  .03  1.03  .03  1.02  .01  1.06  .03  1.04  .03  1.04  .03  1.04  .04 -9.99 -.99  1.00  .04  1.04  .04 -9.99 -.99  1.11  .06 -9.99 -.99  1.08  .08  1.09  .10  1.15  .20 -9.99 -.99 1979-06-20 1 0
   22 ---          .89  .03   .82  .07   .86  .03   .93  .03   .93  .03   .94  .03   .94  .03   .98  .03  1.00  .03  1.03  .03  1.04  .03  1.05  .02  1.09  .03  1.08  .03  1.13  .03  1.17  .03  1.16  .03 -9.99 -.99  1.06  .04 -9.99 -.99  1.18  .05 -9.99 -.99  1.19  .06  1.52  .12  1.38  .15 -9.99 -.99 1979-06-20 1 0
   23 ---          .68  .06   .59  .03   .60  .03   .76  .03   .78  .03   .88  .03   .90  .03   .96  .03  1.00  .03  1.05  .03  1.10  .03  1.09  .03  1.18  .03  1.16  .03  1.23  .03  1.09  .08 -9.99 -.99 -9.99 -.99  1.13  .06 -9.99 -.99  1.12  .05 -9.99 -.99  1.27  .10  1.26  .13  1.41  .25 -9.99 -.99 1979-06-20 1 0
   24 ---          .60  .10   .67  .12   .83  .09   .91  .03   .86  .03   .92  .04   .91  .04   .97  .04  1.00  .03  1.00  .03  1.01  .03   .92  .04   .91  .04   .97  .04  1.04  .08   .99  .07   .96  .05   .93  .03  1.05  .04  1.08  .07 -9.99 -.99  1.01  .07  1.01  .07   .85  .08 -9.99 -.99 -9.99 -.99 1979-06-20 1 0
   25 ---        -9.99 -.99   .51  .24   .73  .30   .65  .03   .71  .03   .83  .03   .89  .03   .97  .03  1.01  .03  1.03  .03  1.15  .03  1.16  .03  1.21  .05  1.23  .03  1.27  .03  1.23  .07 -9.99 -.99  1.04  .08  1.07  .08 -9.99 -.99  1.10  .08 -9.99 -.99  1.24  .11 -9.99 -.99  1.37  .21 -9.99 -.99 1979-06-20 1 0
   26 ---          .50  .07 -9.99 -.99   .60  .03   .67  .03   .77  .03   .83  .03   .86  .03   .96  .03  1.00  .03  1.02  .03  1.06  .03  1.15  .03  1.17  .06  1.14  .03  1.23  .03  1.20  .03  1.17  .03 -9.99 -.99 -9.99 -.99 -9.99 -.99 -9.99 -.99 -9.99 -.99 -9.99 -.99 -9.99 -.99 -9.99 -.99 -9.99 -.99 1979-06-20 1 0
   27 ---        -9.99 -.99   .56  .06   .61  .11   .63  .03   .68  .03   .84  .03   .86  .03   .96  .03  1.00  .03  1.04  .03  1.09  .03  1.09  .03  1.21  .07  1.23  .03  1.26  .03  1.19  .05 -9.99 -.99 -9.99 -.99  1.05  .03 -9.99 -.99  1.12  .03 -9.99 -.99  1.08  .03  1.15  .03  1.37  .03 -9.99 -.99 1979-06-20 1 0
   28 ---        -9.99 -.99   .49  .10   .65  .09   .64  .03   .74  .03   .83  .03   .86  .04   .96  .04  1.02  .04  1.02  .03  1.06  .03  1.03  .03  1.15  .08  1.15  .03  1.20  .03  1.17  .03  1.13  .03  1.01  .03  1.05  .03 -9.99 -.99   .92  .08 -9.99 -.99  1.07  .03 -9.99 -.99  1.13  .06  1.17  .10 1979-06-20 1 0
   29 ---          .65  .09   .70  .08   .77  .03   .76  .03   .84  .04   .91  .04   .92  .03   .99  .03  1.00  .03  1.08  .03  1.10  .04  1.09  .09  1.16  .04  1.18  .04  1.18  .03  1.19  .05 -9.99 -.99  1.14  .03  1.13  .05 -9.99 -.99  1.13  .04 -9.99 -.99  1.18  .05 -9.99 -.99  1.27  .05  1.19  .06 1979-06-20 1 0
   30 ---          .29  .20   .90  .05   .70  .05   .74  .03   .74  .03   .88  .03   .85  .03   .94  .03  1.02  .03  1.01  .03  1.07  .03  1.12 -.99  1.12  .03  1.16  .03  1.15  .03  1.17  .10 -9.99 -.99 -9.99 -.99  1.19  .05 -9.99 -.99  1.23  .05 -9.99 -.99  1.22  .05  1.08  .15  1.28  .15 -9.99 -.99 1979-06-20 1 0
   31 ---          .78  .03 -9.99 -.99   .83  .03   .94  .03   .91  .03   .97  .03  1.00  .03  1.03  .03  1.00  .03  1.02  .03  1.05  .03  1.03  .03 -9.99 -.99  1.02  .01  1.04  .03  1.06  .03  1.00  .03  1.02  .03  1.03  .03  1.02  .03 -9.99 -.99  1.03  .03 -9.99 -.99 -9.99 -.99 -9.99 -.99 -9.99 -.99 1979-06-20 1 0
   32 ---          .72  .14   .63  .07   .65  .03   .77  .03   .78  .03   .86  .03   .90  .03   .94  .03  1.00  .03  1.03  .03  1.07  .03  1.08  .02  1.12  .03  1.13  .03  1.18  .03  1.10  .04 -9.99 -.99 -9.99 -.99   .98  .03 -9.99 -.99  1.10  .03 -9.99 -.99  1.06  .04  1.02  .10  1.18  .10 -9.99 -.99 1979-06-20 1 0
   34 ---          .68  .03 -9.99 -.99   .76  .03   .91  .03   .89  .03   .99  .03   .99  .03  1.00  .03  1.00  .03   .99  .03  1.02  .03  1.01  .03  1.00  .04  1.00  .03  1.06  .03  1.04  .03  1.01  .03  1.09  .03  1.07  .03  1.00  .03 -9.99 -.99  1.07  .03 -9.99 -.99 -9.99 -.99 -9.99 -.99 -9.99 -.99 1979-06-20 1 0
   36 ---          .79  .06 -9.99 -.99   .61  .12   .82  .06  1.15  .06  1.04  .07   .99  .06   .98  .06   .98  .23  1.08  .07   .97  .06  1.05  .06   .98  .06   .99  .09  1.02  .06   .95  .06   .96  .13  1.00  .06  1.05  .57  1.04  .11 -9.99 -.99 -9.99 -.99 -9.99 -.99 -9.99 -.99 -9.99 -.99 -9.99 -.99 1979-06-20 1 0
   37 ---          .65  .03 -9.99 -.99   .72  .03   .72  .03   .78  .03   .84  .03   .91  .03   .96  .03  1.00  .03  1.02  .03  1.05  .03  1.10  .03  1.16  .07  1.12  .03  1.12  .03  1.13  .03  1.13  .03  1.09  .03  1.00  .03  1.05  .05 -9.99 -.99  1.07  .03  1.11  .05  1.05  .03  1.24  .03 -9.99 -.99 1979-06-20 1 0
   39 ---          .49  .03   .54  .04   .56  .03   .68  .03   .75  .03   .83  .03   .89  .03   .96  .03  1.00  .03  1.04  .03  1.10  .03  1.11  .09  1.17  .03  1.19  .03  1.22  .03  1.21  .03  1.20  .03  1.18  .03  1.16  .03  1.21  .03 -9.99 -.99  1.14  .03  1.16  .03  1.18  .04  1.25  .05 -9.99 -.99 1979-06-20 1 0
   40 ---          .58  .15   .60  .05   .62  .05   .71  .03   .73  .03   .81  .03   .87  .03   .94  .03  1.00  .03  1.04  .03  1.11  .03  1.13 -.99  1.17  .03  1.17  .03  1.20  .03  1.20  .03  1.19  .03  1.12  .03  1.10  .03  1.16  .05 -9.99 -.99  1.14  .05  1.20  .05  1.24  .05  1.38  .05 -9.99 -.99 1979-06-20 1 0
   41 ---          .69  .03 -9.99 -.99   .75  .03   .88  .03   .91  .03   .89  .03   .93  .05  1.00  .04  1.00  .03   .98  .03  1.02  .03   .95  .03  1.00  .01   .91  .03   .97  .03   .99  .03   .97  .03  1.08  .03  1.05  .06  1.05  .03 -9.99 -.99  1.05  .03 -9.99 -.99  1.17  .03  1.16  .04 -9.99 -.99 1979-06-20 1 0
   42 ---          .47  .05 -9.99 -.99   .61  .03   .71  .03   .79  .03   .83  .03   .91  .03   .97  .03  1.00  .03  1.04  .03  1.08  .03  1.14  .03  1.20  .02  1.18  .03  1.18  .03  1.20  .03  1.23  .03  1.27  .07  1.28  .12 -9.99 -.99 -9.99 -.99 -9.99 -.99 -9.99 -.99 -9.99 -.99 -9.99 -.99 -9.99 -.99 1979-06-20 1 0
   43 ---          .52  .03 -9.99 -.99   .59  .03   .73  .03   .80  .03   .88  .03   .92  .03   .97  .03  1.00  .03  1.06  .03  1.10  .03  1.14  .03  1.19  .03  1.16  .03  1.18  .03  1.15  .03  1.07  .03  1.03  .03   .99  .03   .94  .04 -9.99 -.99  1.00  .03   .97  .07   .99  .08  1.03  .06 -9.99 -.99 1979-06-20 1 0
   44 ---          .93  .04 -9.99 -.99   .93  .03   .99  .03  1.00  .03   .98  .03  1.01  .03   .99  .03  1.00  .03  1.01  .03  1.05  .03  1.05  .03  1.08  .04  1.04  .03  1.06  .03  1.08  .03  1.03  .03  1.09  .03  1.03  .03  1.05  .07 -9.99 -.99  1.11  .04  1.20  .05  1.09  .03  1.17  .07 -9.99 -.99 1979-06-20 1 0
   45 ---          .92  .06 -9.99 -.99   .90  .03  1.01  .03  1.02  .03  1.02  .03  1.00  .03  1.01  .03   .98  .03   .99  .03  1.04  .03  1.06  .03  1.09  .05  1.03  .03  1.05  .06  1.07  .03   .99  .07  1.08  .13 -9.99 -.99 -9.99 -.99 -9.99 -.99 -9.99 -.99 -9.99 -.99 -9.99 -.99 -9.99 -.99 -9.99 -.99 1979-06-20 1 0
   46 ---          .90  .11 -9.99 -.99   .92  .11   .94  .03   .97  .03   .98  .03   .95  .03   .99  .03  1.00  .03  1.00  .03  1.04  .03  1.02  .03  1.05  .06  1.04  .03  1.06  .03  1.03  .03   .99  .03  1.01  .07   .98  .03   .99  .05 -9.99 -.99  1.03  .03  1.13  .04   .96  .04   .79  .18 -9.99 -.99 1979-06-20 1 0
   48 ---          .68  .09   .78  .15   .67  .10   .82  .03   .82  .03   .96  .03   .97  .03  1.02  .03  1.00  .03  1.02  .03   .99  .03   .97  .08   .96  .03   .99  .03   .92  .03   .94  .03   .95  .03  1.01  .03   .98  .04  1.02  .05 -9.99 -.99   .94  .05   .93  .05   .99  .07   .91  .10 -9.99 -.99 1979-06-20 1 0
   51 ---          .55  .33   .54  .13   .62  .06   .78  .03   .79  .05   .92  .03   .97  .04  1.00  .03  1.00  .03   .99  .03  1.03  .03   .93  .01   .97  .03   .98  .03   .95  .06  1.03  .03 -9.99 -.99  1.04  .07  1.07  .04 -9.99 -.99  1.10  .05 -9.99 -.99  1.10  .03 -9.99 -.99  1.22  .15 -9.99 -.99 1979-06-20 1 0
   52 ---          .74  .09   .73  .11   .84  .07   .94  .03   .93  .03   .97  .03   .99  .03   .99  .03  1.00  .03   .98  .03  1.01  .03  1.02  .02   .99  .03   .96  .03  1.03  .03  1.03  .04   .99  .07  1.04  .16  1.00  .03   .99  .08  1.06  .04  1.03  .10  1.01  .04   .95  .10 -9.99 -.99 -9.99 -.99 1979-06-20 1 0
   53 ---        -9.99 -.99 -9.99 -.99 -9.99 -.99   .85  .03   .83  .04   .96  .04   .96  .06  1.05  .04   .98  .04  1.06  .04   .97  .10  1.03  .04  1.08  .07  1.02  .04  1.08  .03  1.04  .06 -9.99 -.99 -9.99 -.99 -9.99 -.99 -9.99 -.99 -9.99 -.99 -9.99 -.99 -9.99 -.99 -9.99 -.99 -9.99 -.99 -9.99 -.99 1979-06-20 1 0
   54 ---        -9.99 -.99 -9.99 -.99   .74  .13   .83  .05   .90  .03   .91  .03  1.00  .03  1.01  .06  1.00  .06  1.01  .03   .94  .06   .97  .03  1.09  .03  1.06  .04   .98  .05  1.17  .08  1.01  .08 -9.99 -.99 -9.99 -.99 -9.99 -.99 -9.99 -.99 -9.99 -.99 -9.99 -.99 -9.99 -.99 -9.99 -.99 -9.99 -.99 1979-06-20 1 0
   58 ---          .83  .12  1.08  .15   .78  .15   .91  .04   .85  .04   .98  .04   .95  .03   .97  .04  1.02  .04   .97  .04  1.00  .03   .98  .08  1.02  .06   .98  .04   .97  .05   .97  .05   .99  .05  1.06  .05   .97  .07  1.20  .10 -9.99 -.99  1.00  .08   .98  .15  1.12  .20 -9.99 -.99 -9.99 -.99 1979-06-20 1 0
   60 ---        -9.99 -.99   .70  .30 -9.99 -.99   .68  .03   .72  .03   .85  .03   .89  .03   .94  .03  1.00  .03  1.05  .03  1.07  .03  1.02  .06  1.12  .07  1.10 -.99  1.16  .06  1.33  .10 -9.99 -.99 -9.99 -.99  1.14  .05 -9.99 -.99  1.29  .07 -9.99 -.99  1.01  .10 -9.99 -.99  1.05  .30  1.36  .30 1979-06-20 1 0
   62 ---          .77  .03 -9.99 -.99   .87  .04   .97  .03  1.02  .03   .98  .03   .98  .03   .99  .03  1.00  .03   .97  .03   .95  .03   .92  .03  1.01  .02   .95  .03   .95  .03   .94  .03   .93  .03 -9.99 -.99 -9.99 -.99 -9.99 -.99 -9.99 -.99 -9.99 -.99 -9.99 -.99 -9.99 -.99 -9.99 -.99 -9.99 -.99 1979-06-20 1 0
   63 ---          .45  .04   .47  .08   .50  .06   .62  .03   .67  .03   .81  .03   .90  .03   .97  .03  1.00  .03  1.05  .03  1.16  .03  1.19  .03  1.26  .03  1.26  .04  1.28  .04  1.30  .06  1.27  .05  1.21  .05  1.20  .05  1.17  .05 -9.99 -.99  1.18  .04  1.23  .04  1.24  .05  1.32  .09 -9.99 -.99 1979-06-20 1 0
   64 ---          .93  .12 -9.99 -.99   .86  .05   .93  .05   .98  .03   .90  .03   .89  .03   .99  .05   .96  .03  1.05  .03  1.04  .03  1.03  .03  1.06  .04  1.05  .03  1.08  .05  1.11  .09  1.10  .03  1.10  .03  1.12  .03  1.07  .06 -9.99 -.99  1.08  .03  1.10  .07  1.10  .03  1.06  .03 -9.99 -.99 1979-06-20 1 0
   65 ---          .69  .07 -9.99 -.99   .83  .03   .93  .03   .93  .05   .94  .03   .89  .04  1.03  .03   .96  .04  1.03  .06  1.06  .03   .97  .03  1.05  .05  1.03  .03   .99  .06  1.06  .04  1.10  .08  1.06  .04  1.05  .04  1.21  .14 -9.99 -.99   .97  .12  1.02  .15 -9.99 -.99 -9.99 -.99 -9.99 -.99 1979-06-20 1 0
   66 ---          .59  .12 -9.99 -.99   .71  .06   .91  .03   .97  .03   .97  .05   .95  .03   .99  .07  1.00  .03  1.04  .05   .96  .03   .99  .03  1.05  .06   .97  .03   .87  .05   .98  .03   .88  .09 -9.99 -.99 -9.99 -.99 -9.99 -.99 -9.99 -.99 -9.99 -.99 -9.99 -.99 -9.99 -.99 -9.99 -.99 -9.99 -.99 1979-06-20 1 0
   68 ---          .19  .03   .56  .15   .77  .14   .75  .03   .74  .05   .84  .03   .88  .03   .94  .03   .98  .03  1.09  .03  1.08  .03  1.11  .08  1.18  .03  1.15  .04  1.24  .03  1.14  .03 -9.99 -.99  1.15  .03  1.08  .03 -9.99 -.99  1.11  .04 -9.99 -.99  1.06  .03 -9.99 -.99  1.13  .03  1.09  .03 1979-06-20 1 0
   69 ---          .85  .03 -9.99 -.99   .91  .08   .83  .04   .87  .03   .94  .03   .96  .03  1.03  .03   .98  .03  1.00  .03  1.05  .03  1.07  .03  1.10  .09  1.07  .03  1.12  .05  1.08  .03   .99  .03  1.12  .03  1.07  .03  1.11  .03 -9.99 -.99  1.11  .03   .98  .09 -9.99 -.99 -9.99 -.99 -9.99 -.99 1979-06-20 1 0
   71 ---          .66  .03 -9.99 -.99   .65  .03   .73  .03   .81  .03   .84  .03   .87  .03   .94  .03  1.00  .03  1.01  .03  1.02  .03  1.05  .03  1.08  .01  1.07  .03  1.07  .03  1.07  .03  1.06  .03 -9.99 -.99 -9.99 -.99 -9.99 -.99 -9.99 -.99 -9.99 -.99 -9.99 -.99 -9.99 -.99 -9.99 -.99 -9.99 -.99 1979-06-20 1 0
   78 ---          .65  .03 -9.99 -.99   .84  .08   .91  .03   .94  .03   .96  .03   .97  .03  1.03  .03  1.00  .03   .98  .03   .99  .03  1.00  .03  1.03  .08   .97  .03  1.04  .03  1.04  .03   .98  .03   .98  .05  1.04  .03   .98  .03 -9.99 -.99   .98  .04  1.04  .04   .95  .07   .97  .07 -9.99 -.99 1979-06-20 1 0
   79 ---          .63  .16   .47  .04   .44  .05   .70  .05   .74  .04   .85  .06   .87  .04   .91  .03  1.03  .03  1.04  .08  1.12  .05  1.08  .09  1.11  .03  1.17  .05  1.18  .04  1.18  .05 -9.99 -.99  1.09  .06  1.06  .05 -9.99 -.99  1.09  .03 -9.99 -.99  1.15  .05 -9.99 -.99  1.31  .07  1.30  .09 1979-06-20 1 0
   80 ---        -9.99 -.99   .48  .12   .43  .05   .57  .03   .64  .03   .81  .03   .81  .03   .93  .03  1.00  .03  1.06  .03  1.09  .03  1.09  .03  1.18 -.99  1.19  .03  1.17  .04  1.07  .04  1.13  .05  1.08  .08  1.08  .06 -9.99 -.99  1.16  .06 -9.99 -.99  1.10  .07 -9.99 -.99  1.07  .11  1.11  .10 1979-06-20 1 0
   82 ---          .53  .05   .68  .10   .79  .05   .72  .04   .69  .05   .80  .05   .89  .05   .95  .05  1.00  .05  1.04  .03  1.11  .03  1.13  .02  1.16  .04  1.16  .05  1.26  .08  1.16  .07 -9.99 -.99  1.08  .06  1.04  .06 -9.99 -.99  1.07  .07 -9.99 -.99  1.18  .12 -9.99 -.99  1.21  .07 -9.99 -.99 1979-06-20 1 0
   83 ---          .91  .03 -9.99 -.99   .79  .05   .86  .03   .94  .03   .90  .03   .93  .03   .95  .03  1.00  .04  1.01  .03  1.02  .03   .99  .03   .99  .03  1.01  .03  1.07  .03  1.00  .03  1.02  .03 -9.99 -.99 -9.99 -.99 -9.99 -.99 -9.99 -.99 -9.99 -.99 -9.99 -.99 -9.99 -.99 -9.99 -.99 -9.99 -.99 1979-06-20 1 0
   84 ---        -9.99 -.99 -9.99 -.99 -9.99 -.99   .86  .04   .82  .03   .92  .03   .87  .03   .98  .03  1.00  .04   .98  .04  1.04  .03   .93  .06  1.07  .10   .90  .08   .86  .14  1.15  .16 -9.99 -.99 -9.99 -.99   .76  .08 -9.99 -.99   .93  .13 -9.99 -.99   .86  .15 -9.99 -.99 -9.99 -.99 -9.99 -.99 1979-06-20 1 0
   85 ---          .85  .05   .81  .05   .89  .05   .94  .03   .95  .03  1.00  .03   .98  .03   .98  .03  1.01  .03   .99  .03  1.01  .03   .99  .05  1.01  .03   .97  .03   .99  .03   .98  .03   .96  .03   .95  .03  1.01  .03  1.05  .05 -9.99 -.99   .90  .03   .95  .03   .97  .03  1.08  .04 -9.99 -.99 1979-06-20 1 0
   87 ---         1.02  .08 -9.99 -.99   .89  .05   .91  .04   .94  .03   .95  .03   .95  .03   .96  .03  1.00  .03   .99  .03   .99  .03   .99  .03  1.02  .07  1.01  .03  1.03  .03  1.01  .03   .98  .03  1.05  .04  1.09  .05   .98  .07 -9.99 -.99  1.07  .08  1.14  .06  1.16  .09   .85  .23 -9.99 -.99 1979-06-20 1 0
   88 ---          .66  .09   .73  .12   .78  .10   .90  .03   .89  .04   .95  .03   .97  .03   .98  .03  1.00  .03   .98  .03  1.00  .03  1.00  .08  1.02  .03  1.00  .04  1.00  .04  1.00  .04   .99  .04   .94  .04   .96  .05  1.04  .08 -9.99 -.99   .98  .08   .99  .08   .99  .08  1.05  .10 -9.99 -.99 1979-06-20 1 0
   89 ---          .50  .08   .55  .03   .64  .03   .76  .03   .75  .03   .91  .03   .94  .03   .95  .03  1.00  .03  1.04  .03  1.12  .03  1.12  .09  1.16  .03  1.15  .03  1.19  .03  1.20  .03 -9.99 -.99  1.21  .03  1.17  .03 -9.99 -.99  1.08  .03 -9.99 -.99  1.24  .03 -9.99 -.99  1.40  .03  1.15  .05 1979-06-20 1 0
   90 ---          .65  .08 -9.99 -.99   .76  .08   .94  .05   .97  .06  1.02  .03   .93  .03  1.02  .03  1.00  .03   .98  .03  1.00  .03  1.00  .03  1.06 -.99   .95  .03   .99  .03   .96  .03  1.01  .04 -9.99 -.99 -9.99 -.99 -9.99 -.99 -9.99 -.99 -9.99 -.99 -9.99 -.99 -9.99 -.99 -9.99 -.99 -9.99 -.99 1979-06-20 1 0
   92 ---          .85  .03 -9.99 -.99   .91  .03   .92  .03   .93  .03   .92  .03   .93  .03   .97  .03  1.00  .03  1.00  .03   .99  .03  1.04  .03  1.07  .02  1.04  .03  1.07  .03  1.05  .03  1.03  .03 -9.99 -.99 -9.99 -.99 -9.99 -.99 -9.99 -.99 -9.99 -.99 -9.99 -.99 -9.99 -.99 -9.99 -.99 -9.99 -.99 1979-06-20 1 0
   93 ---        -9.99 -.99  1.00  .16   .72  .11   .91  .05   .83  .05 -9.99 -.99   .97  .06   .97  .06  1.00  .03   .98  .06  1.00  .06  1.01  .11  1.02  .13  1.04  .03   .98  .14  1.06  .16 -9.99 -.99   .97  .23   .93  .12 -9.99 -.99  1.10  .20 -9.99 -.99  1.33  .29 -9.99 -.99 -9.99 -.99 -9.99 -.99 1979-06-20 1 0
   94 ---          .74  .12 -9.99 -.99   .83  .06   .86  .03   .95  .03   .96  .03   .97  .03  1.01  .03  1.00  .03   .99  .03   .95  .03  1.02  .03  1.06  .04  1.04  .03  1.01  .03  1.12  .05  1.10  .07 -9.99 -.99 -9.99 -.99 -9.99 -.99 -9.99 -.99 -9.99 -.99 -9.99 -.99 -9.99 -.99 -9.99 -.99 -9.99 -.99 1979-06-20 1 0
   97 ---          .66  .30  1.01  .12   .90  .11   .96  .03   .96  .03   .96  .03   .94  .03   .99  .05  1.00  .03  1.04  .03  1.04  .03  1.07  .07  1.01  .03  1.02  .04  1.12  .04  1.06  .05  1.11  .03  1.10  .03  1.13  .03  1.13  .03  1.15  .10  1.12  .04  1.10  .08 -9.99 -.99  1.09  .10 -9.99 -.99 1979-06-20 1 0
  105 ---          .86  .03 -9.99 -.99   .80  .04   .92  .03   .95  .03   .97  .03   .99  .03   .99  .03  1.00  .03   .98  .03  1.01  .03  1.00  .03  1.00  .05   .98  .03   .98  .03   .99  .03   .99  .03  1.02  .03  1.06  .03  1.02  .03 -9.99 -.99  1.04  .06  1.12  .03  1.06  .11  1.19  .18 -9.99 -.99 1979-06-20 1 0
  106 ---          .57  .03 -9.99 -.99   .71  .04   .85  .03   .89  .03   .91  .03   .98  .03  1.02  .03  1.00  .03   .96  .03   .95  .03   .99  .03  1.00  .06   .97  .03  1.03  .04  1.00  .03   .95  .03   .94  .03   .95  .06   .89  .09 -9.99 -.99   .92  .05  1.08  .10   .92  .14  1.06  .07 -9.99 -.99 1979-06-20 1 0
  108 ---        -9.99 -.99   .49  .25   .87  .20   .71  .03   .72  .03   .81  .03   .86  .03   .94  .03  1.02  .03  1.01  .03  1.10  .03  1.03  .03  1.18  .08  1.15  .07  1.16  .04  1.17  .20 -9.99 -.99 -9.99 -.99  1.15  .10 -9.99 -.99  1.12  .08 -9.99 -.99  1.48  .15  1.48  .30  1.68  .30 -9.99 -.99 1979-06-20 1 0
  110 ---          .89  .03 -9.99 -.99   .84  .06   .93  .03   .92  .03   .96  .03   .96  .03   .98  .04   .99  .05  1.02  .04   .99  .03  1.06  .04  1.11  .00  1.08  .04  1.07  .03  1.08  .03  1.06  .05   .98  .05  1.00  .06  1.06  .05 -9.99 -.99  1.04  .04  1.02  .07  1.09  .06  1.06  .07 -9.99 -.99 1979-06-20 1 0
  113 ---          .53  .05 -9.99 -.99   .51  .09   .76  .03   .83  .05   .84  .03   .91  .03  1.00  .03  1.00  .06  1.00  .03  1.06  .03  1.18  .03  1.17  .03  1.22  .03  1.19  .03  1.13  .03  1.08  .03  1.08  .05 -9.99 -.99 -9.99 -.99 -9.99 -.99 -9.99 -.99 -9.99 -.99 -9.99 -.99 -9.99 -.99 -9.99 -.99 1979-06-20 1 0
  115 ---          .66  .30   .68  .20   .70  .20   .71  .03   .78  .03   .87  .03   .89  .03   .95  .03   .99  .03  1.04  .03  1.12  .03  1.15  .05  1.16  .03  1.15  .03  1.18  .03  1.08  .04 -9.99 -.99  1.15  .05  1.01  .06 -9.99 -.99  1.08  .06 -9.99 -.99  1.17  .06  1.41  .15  1.60  .15 -9.99 -.99 1979-06-20 1 0
  116 ---          .54  .08 -9.99 -.99   .64  .14   .79  .03   .89  .03   .95  .03   .92  .03  1.00  .03   .97  .04  1.02  .03  1.17  .03  1.02  .03  1.25  .06  1.12  .06  1.14  .06  1.12  .08  1.13  .06  1.04  .05  1.07  .04   .86  .16 -9.99 -.99   .95  .10  1.05  .10   .94  .10  1.00  .10 -9.99 -.99 1979-06-20 1 0
  119 ---          .43  .03   .55  .03   .62  .03   .64  .03   .70  .03   .82  .03   .87  .03   .93  .03  1.00  .03  1.06  .03  1.12  .04  1.12  .09  1.19  .04  1.23  .05  1.23  .05  1.26  .03  1.18  .03  1.24  .03  1.27  .03  1.23  .04 -9.99 -.99  1.26  .04  1.24  .04  1.14  .06  1.21  .08 -9.99 -.99 1979-06-20 1 0
  121 ---          .71  .03 -9.99 -.99   .71  .03   .95  .03   .97  .04   .97  .03  1.03  .03   .96  .03  1.00  .03  1.00  .03  1.00  .03  1.03  .03  1.04  .01   .99  .03   .98  .03  1.03  .03  1.02  .03 -9.99 -.99 -9.99 -.99 -9.99 -.99 -9.99 -.99 -9.99 -.99 -9.99 -.99 -9.99 -.99 -9.99 -.99 -9.99 -.99 1979-06-20 1 0
  122 ---          .47  .08 -9.99 -.99   .51  .04   .68  .03   .81  .04   .85  .03   .87  .04   .96  .05  1.00  .03  1.07  .05  1.15  .05  1.13  .07  1.11  .02  1.14  .05  1.10  .05  1.22  .04  1.16  .03 -9.99 -.99 -9.99 -.99 -9.99 -.99 -9.99 -.99 -9.99 -.99 -9.99 -.99 -9.99 -.99 -9.99 -.99 -9.99 -.99 1979-06-20 1 0
  124 ---          .50  .09 -9.99 -.99   .64  .03   .83  .03   .88  .03   .86  .03   .95  .05  1.07  .03  1.00  .03   .97  .06  1.10  .06  1.11  .04  1.22  .04  1.14  .05  1.08  .07  1.15  .12  1.25  .04 -9.99 -.99 -9.99 -.99 -9.99 -.99 -9.99 -.99 -9.99 -.99 -9.99 -.99 -9.99 -.99 -9.99 -.99 -9.99 -.99 1979-06-20 1 0
  128 ---          .75  .03 -9.99 -.99   .82  .04   .89  .03   .91  .03   .97  .03   .95  .03  1.00  .03  1.00  .03   .99  .03  1.04  .03  1.01  .03 -9.99 -.99  1.03  .03  1.05  .03  1.02  .03   .92  .03   .98  .03  1.02  .03  1.05  .04 -9.99 -.99  1.03  .03 -9.99 -.99 -9.99 -.99 -9.99 -.99 -9.99 -.99 1979-06-20 1 0
  129 ---          .87  .03 -9.99 -.99   .88  .03   .89  .03   .91  .03   .92  .03   .97  .03  1.02  .03  1.00  .04  1.01  .03  1.01  .04  1.01  .03  1.07  .05  1.06  .03  1.02  .03  1.05  .03  1.06  .03  1.11  .03  1.06  .03   .99  .03 -9.99 -.99  1.09  .03 -9.99 -.99  1.15  .03  1.17  .04 -9.99 -.99 1979-06-20 1 0
  130 ---        -9.99 -.99   .57  .30   .86  .20   .82  .04   .88  .03   .91  .03   .92  .03   .96  .03  1.00  .03   .98  .03   .99  .03   .98  .03   .97 -.99   .91  .05  1.06  .04  1.04  .04  1.12  .03  1.06  .05  1.06  .03  1.07  .03  1.04  .08  1.26  .05  1.09  .07  1.28  .08  1.11  .09 -9.99 -.99 1979-06-20 1 0
  136 ---          .80  .03 -9.99 -.99   .88  .04   .86  .03   .85  .03   .90  .03   .87  .03   .95  .03  1.03  .03   .95  .03  1.07  .03  1.12  .05  1.05  .06  1.12  .03  1.17  .03  1.19  .03  1.10  .03  1.15  .05  1.11  .08  1.03  .07 -9.99 -.99  1.13  .03 -9.99 -.99 -9.99 -.99 -9.99 -.99 -9.99 -.99 1979-06-20 1 0
  139 ---        -9.99 -.99   .59  .18   .88  .04   .89  .03   .89  .03  1.00  .03   .97  .03  1.00  .03  1.00  .03  1.04  .03  1.03  .03   .99  .03  1.03  .09  1.02  .04  1.00  .04  1.01  .03   .99  .03  1.01  .05  1.03  .05 -9.99 -.99   .97  .07 -9.99 -.99   .98  .07 -9.99 -.99  1.02  .10   .85  .11 1979-06-20 1 0
  140 ---          .76  .04   .77  .05   .85  .05   .80  .03   .85  .03   .93  .03   .93  .03   .98  .03  1.00  .03  1.00  .03  1.08  .03  1.03 -.99  1.10  .03  1.15  .03  1.11  .03  1.17  .04  1.13  .03  1.12  .03  1.14  .03  1.24  .04 -9.99 -.99  1.30  .05  1.17  .05  1.15  .07 -9.99 -.99 -9.99 -.99 1979-06-20 1 0
  141 ---          .73  .03   .77  .03   .81  .03   .86  .03   .89  .03   .96  .03   .98  .03  1.00  .03  1.00  .03  1.00  .03  1.01  .03   .98  .01  1.01  .03  1.02  .03  1.04  .03  1.04  .03  1.03  .03   .99  .03  1.04  .03  1.09  .03 -9.99 -.99  1.03  .03   .99  .03  1.06  .04  1.01  .06 -9.99 -.99 1979-06-20 1 0
  144 ---          .76  .03 -9.99 -.99   .82  .03   .85  .03   .90  .03   .93  .03   .96  .03   .99  .03  1.00  .03   .98  .03   .96  .03   .99  .03  1.01  .04   .95  .03   .97  .03   .96  .03   .99  .03   .96  .03   .95  .03   .99  .04 -9.99 -.99  1.03  .03   .94  .03   .99  .04   .97  .03 -9.99 -.99 1979-06-20 1 0
  145 ---          .70  .05   .65  .08   .76  .05   .85  .03   .88  .03   .96  .03  1.01  .03  1.00  .03  1.02  .03  1.02  .03  1.04  .03   .99  .05  1.02  .03  1.03  .03  1.09  .03  1.01  .03  1.02  .04  1.02  .05   .92  .05  1.08  .05 -9.99 -.99   .91  .05   .97  .05   .98  .07  1.04  .10 -9.99 -.99 1979-06-20 1 0
  149 ---          .62  .16 -9.99 -.99   .60  .10   .68  .03   .72  .03   .80  .03   .90  .03  1.00  .03  1.00  .03  1.05  .03  1.04  .03  1.14  .03  1.19  .09  1.12  .04  1.19  .04  1.14  .03  1.12  .04 -9.99 -.99 -9.99 -.99 -9.99 -.99 -9.99 -.99 -9.99 -.99 -9.99 -.99 -9.99 -.99 -9.99 -.99 -9.99 -.99 1979-06-20 1 0
  150 ---          .76  .07 -9.99 -.99   .90  .10   .96  .03  1.00  .03   .99  .04   .97  .03   .99  .03  1.01  .03   .99  .03   .99  .03   .97  .03   .98 -.99  1.00  .03  1.02  .03   .98  .03  1.05  .03  1.07  .04  1.10  .06  1.08  .04 -9.99 -.99  1.09  .05  1.07  .08   .86  .22 -9.99 -.99 -9.99 -.99 1979-06-20 1 0
  156 ---          .76  .06 -9.99 -.99   .76  .06   .91  .03   .93  .03   .96  .03   .97  .03  1.01  .03  1.00  .03   .99  .03   .97  .03   .97  .03   .98  .06   .97  .03   .98  .03  1.00  .03   .96  .03  1.04  .03  1.01  .04  1.01  .03 -9.99 -.99  1.10  .03  1.18  .03  1.07  .05  1.08  .10 -9.99 -.99 1979-06-20 1 0
  158 ---          .62  .05 -9.99 -.99   .70  .03   .79  .03   .86  .03   .86  .03   .86  .03   .97  .03  1.00  .03  1.06  .03  1.08  .03  1.08  .03  1.13  .08  1.14  .03  1.14  .03  1.09  .03  1.04  .03 -9.99 -.99 -9.99 -.99 -9.99 -.99 -9.99 -.99 -9.99 -.99 -9.99 -.99 -9.99 -.99 -9.99 -.99 -9.99 -.99 1979-06-20 1 0
  163 ---          .69  .16   .60  .10   .61  .09   .86  .05   .84  .03   .93  .03   .94  .03   .98  .03  1.00  .03   .98  .03  1.00  .03   .97  .03   .97  .03  1.00  .04   .97  .03   .96  .05   .93  .05   .95  .08  1.00  .08 -9.99 -.99   .82  .14 -9.99 -.99  1.10  .12 -9.99 -.99   .86  .17 -9.99 -.99 1979-06-20 1 0
  164 ---          .74  .10 -9.99 -.99   .69  .17   .88  .06  1.02  .03  1.00  .04  1.00  .03  1.00  .03  1.00  .04  1.05  .03   .95  .03  1.05  .04  1.06  .04  1.03  .03  1.04  .03  1.03  .03  1.04  .06 -9.99 -.99 -9.99 -.99 -9.99 -.99 -9.99 -.99 -9.99 -.99 -9.99 -.99 -9.99 -.99 -9.99 -.99 -9.99 -.99 1979-06-20 1 0
  166 ---          .74  .20   .61  .15   .49  .11   .73  .03   .79  .04   .89  .03   .93  .03   .97  .03  1.03  .03   .98  .03  1.04  .05  1.07  .06  1.05  .03  1.07  .03  1.00  .05  1.10  .07  1.13  .07  1.06  .05  1.05  .06  1.00  .09 -9.99 -.99   .98  .05  1.06  .04   .97  .20  1.16  .11 -9.99 -.99 1979-06-20 1 0
  167 ---        -9.99 -.99 -9.99 -.99   .74  .10   .72  .03   .86  .04   .87  .05   .92  .03   .95  .03  1.02  .06   .92  .03  1.07  .05  1.10  .04  1.23  .05  1.02  .07  1.24  .07  1.20  .07  1.05  .11   .95  .08   .92  .06  1.07  .13 -9.99 -.99 -9.99 -.99 -9.99 -.99 -9.99 -.99 -9.99 -.99 -9.99 -.99 1979-06-20 1 0
  169 ---          .45  .06 -9.99 -.99   .57  .06   .68  .03   .77  .03   .84  .03   .90  .03   .98  .03  1.00  .03  1.06  .03  1.07  .03  1.17  .03  1.19  .09  1.24  .03  1.27  .03  1.18  .03  1.18  .05 -9.99 -.99 -9.99 -.99 -9.99 -.99 -9.99 -.99 -9.99 -.99 -9.99 -.99 -9.99 -.99 -9.99 -.99 -9.99 -.99 1979-06-20 1 0
  170 ---        -9.99 -.99 -9.99 -.99 -9.99 -.99   .84  .05   .72  .05   .87  .03   .91  .03   .96  .04  1.00  .07  1.09  .05  1.19  .10  1.17  .12  1.32  .06  1.34  .06  1.30 -.99  1.37  .06  1.35  .06  1.40  .06  1.31  .06  1.47  .10 -9.99 -.99  1.47  .08  1.48  .08 -9.99 -.99 -9.99 -.99 -9.99 -.99 1979-06-20 1 0
  175 ---          .66  .03 -9.99 -.99   .76  .05   .95  .03   .99  .03   .99  .03  1.01  .03   .98  .03  1.00  .03  1.05  .03  1.00  .03  1.01  .03  1.05  .05   .99  .03  1.04  .03  1.00  .03  1.00  .04   .94  .04   .89  .09  1.01  .09 -9.99 -.99  1.06  .12  1.14  .12  1.05  .24   .81  .10 -9.99 -.99 1979-06-20 1 0
  176 ---          .61  .08   .57  .05   .62  .06   .80  .03   .85  .03   .95  .03   .96  .03   .99  .03  1.02  .03   .98  .03   .96  .03   .94  .06   .98  .03   .98  .03  1.00  .03   .98  .04  1.02  .04   .97  .03  1.04  .03  1.07  .03 -9.99 -.99   .97  .04  1.08  .04   .92  .05  1.16  .08 -9.99 -.99 1979-06-20 1 0
  181 ---          .54  .15   .66  .14   .91  .16   .76  .03   .82  .03   .92  .03   .91  .03   .98  .03  1.00  .03  1.06  .03  1.15  .03  1.08  .01  1.19  .03  1.16  .03  1.24  .03  1.16  .05 -9.99 -.99  1.22  .09  1.07  .06 -9.99 -.99  1.06  .10 -9.99 -.99   .97  .10 -9.99 -.99  1.35  .35 -9.99 -.99 1979-06-20 1 0
  185 ---          .85  .03 -9.99 -.99   .90  .03   .91  .03   .93  .03   .96  .03   .95  .03  1.00  .03  1.02  .03   .99  .03   .98  .03  1.00  .03  1.01  .05   .99  .03  1.00  .03   .98  .03   .97  .03 -9.99 -.99 -9.99 -.99 -9.99 -.99 -9.99 -.99 -9.99 -.99 -9.99 -.99 -9.99 -.99 -9.99 -.99 -9.99 -.99 1979-06-20 1 0
  192 ---          .48  .15   .48  .12   .51  .07   .75  .03   .73  .06   .87  .03   .83  .03   .95  .04  1.00  .03  1.03  .05  1.13  .03  1.11  .02  1.21  .03  1.14  .04  1.21  .03  1.16  .03 -9.99 -.99  1.07  .04  1.08  .05 -9.99 -.99  1.08  .03 -9.99 -.99  1.09  .03 -9.99 -.99  1.24  .04  1.23  .07 1979-06-20 1 0
  194 ---          .61  .08   .57  .10   .78  .15   .82  .03   .84  .03   .98  .03   .95  .03  1.01  .03  1.00  .03  1.00  .03  1.08  .03  1.06  .04  1.02  .03  1.06  .03  1.06  .04  1.08  .03  1.10  .03  1.10  .03  1.06  .03  1.12  .05 -9.99 -.99  1.09  .03  1.15  .03  1.01  .05  1.18  .06 -9.99 -.99 1979-06-20 1 0
  196 ---          .76  .12   .42  .05   .73  .03   .71  .03   .73  .03   .79  .03   .86  .03   .93  .03  1.01  .03  1.02  .03  1.03  .03  1.09  .06  1.09  .04  1.14  .04  1.17  .04  1.14  .06 -9.99 -.99  1.12  .09  1.14  .10 -9.99 -.99  1.11  .08 -9.99 -.99  1.17  .10 -9.99 -.99   .91  .30 -9.99 -.99 1979-06-20 1 0
  197 ---          .46  .14 -9.99 -.99   .46  .16   .66  .03   .67  .03   .82  .03   .83  .03  1.01  .03   .96  .03   .98  .03  1.12  .03  1.07  .03  1.28  .07  1.20  .07  1.45  .07  1.33  .07  1.23  .05  1.40  .31  1.15  .05  1.14  .06 -9.99 -.99  1.38  .11 -9.99 -.99 -9.99 -.99 -9.99 -.99 -9.99 -.99 1979-06-20 1 0
  198 ---          .57  .03 -9.99 -.99   .64  .03   .74  .03   .80  .03   .84  .03   .90  .03   .97  .03  1.00  .03  1.05  .03  1.08  .03  1.09  .03  1.21  .08  1.15  .03  1.17  .03  1.18  .04  1.15  .03 -9.99 -.99 -9.99 -.99 -9.99 -.99 -9.99 -.99 -9.99 -.99 -9.99 -.99 -9.99 -.99 -9.99 -.99 -9.99 -.99 1979-06-20 1 0
  200 ---        -9.99 -.99 -9.99 -.99 -9.99 -.99   .97  .05   .93  .04   .98  .03  1.02  .03  1.03  .03  1.00  .03  1.03  .03  1.00  .03  1.06  .04  1.02  .08   .99  .06  1.14 -.99  1.02  .12 -9.99 -.99 -9.99 -.99  1.10  .09 -9.99 -.99  1.18  .15 -9.99 -.99  1.02  .15   .99  .35  1.26  .35 -9.99 -.99 1979-06-20 1 0
  208 ---        -9.99 -.99 -9.99 -.99 -9.99 -.99   .77  .06   .90  .37   .91  .06   .87  .06  1.11  .06   .93  .14  1.06  .12  1.04  .06  1.08  .06  1.17  .32  1.05  .09   .90  .28  1.34  .12   .94  .06 -9.99 -.99 -9.99 -.99 -9.99 -.99 -9.99 -.99 -9.99 -.99 -9.99 -.99 -9.99 -.99 -9.99 -.99 -9.99 -.99 1979-06-20 1 0
  210 ---        -9.99 -.99   .93  .14   .90  .10   .83  .03   .87  .03   .93  .03   .93  .03   .95  .04  1.01  .04  1.02  .03   .98  .04   .92  .04   .97 -.99   .99  .03   .94  .06   .99  .05   .97  .05   .87  .05   .95  .05   .87  .07 -9.99 -.99   .85  .06  1.08  .06 -9.99 -.99  1.08  .19 -9.99 -.99 1979-06-20 1 0
  213 ---          .91  .09  1.23  .10   .97  .10  1.01  .04   .94  .04   .93  .03   .94  .05   .95  .04  1.05  .03   .99  .05  1.02  .03  1.02  .03  1.05  .05  1.02  .03   .99  .05  1.07  .04   .93  .05  1.01  .07   .95  .05   .84  .10 -9.99 -.99  1.09  .08  1.02  .07   .97  .09   .97  .12 -9.99 -.99 1979-06-20 1 0
  216 ---          .90  .03 -9.99 -.99   .90  .03   .89  .03   .86  .03   .91  .03   .94  .03  1.01  .03  1.00  .03   .97  .03  1.03  .03  1.04  .03  1.08  .06  1.05  .03  1.11  .03  1.10  .03  1.06  .03  1.12  .03  1.16  .03  1.07  .03 -9.99 -.99  1.12  .03 -9.99 -.99 -9.99 -.99 -9.99 -.99 -9.99 -.99 1979-06-20 1 0
  217 ---          .95  .10 -9.99 -.99   .83  .05   .91  .03   .91  .03   .95  .03   .95  .03   .95  .03  1.00  .03  1.01  .03  1.02  .03  1.03  .03  1.06  .07  1.02  .03  1.08  .03  1.02  .03  1.03  .03  1.06  .07  1.13  .08  1.11  .05 -9.99 -.99  1.21  .07  1.22  .14  1.06  .05  1.28  .20 -9.99 -.99 1979-06-20 1 0
  220 ---          .81  .03 -9.99 -.99   .83  .03   .85  .03   .89  .03   .92  .03   .94  .03   .97  .03  1.00  .03  1.00  .03   .96  .03  1.04  .03  1.03 -.99  1.01  .03  1.03  .03  1.03  .03  1.14  .05 -9.99 -.99 -9.99 -.99 -9.99 -.99 -9.99 -.99 -9.99 -.99 -9.99 -.99 -9.99 -.99 -9.99 -.99 -9.99 -.99 1979-06-20 1 0
  221 ---          .50  .06   .51  .10   .65  .07   .73  .03   .75  .03   .89  .03   .90  .03  1.01  .03  1.00  .03  1.02  .03  1.08  .03  1.10  .03  1.09  .05  1.09  .03  1.05  .03  1.12  .05  1.05  .05  1.05  .04  1.11  .04  1.05  .05 -9.99 -.99  1.02  .05  1.00  .05  1.10  .07 -9.99 -.99 -9.99 -.99 1979-06-20 1 0
  230 ---          .62  .20   .67  .06   .69  .03   .78  .03   .78  .03   .86  .03   .90  .03   .97  .03  1.00  .03  1.08  .03  1.12  .03  1.13  .03  1.18  .03  1.20  .03  1.25  .03  1.25  .03 -9.99 -.99 -9.99 -.99  1.17  .03 -9.99 -.99  1.22  .03 -9.99 -.99  1.26  .03  1.33  .04  1.27  .05 -9.99 -.99 1979-06-20 1 0
  236 ---          .65  .09 -9.99 -.99   .73  .04   .74  .03   .78  .03   .87  .03   .89  .03   .99  .04   .98  .03  1.03  .03  1.06  .03  1.12  .03  1.10  .06  1.18  .03  1.26  .03  1.24  .05  1.20  .03  1.30  .08  1.28  .06  1.15  .06 -9.99 -.99  1.34  .08 -9.99 -.99 -9.99 -.99 -9.99 -.99 -9.99 -.99 1979-06-20 1 0
  243 ---          .87  .06 -9.99 -.99   .72  .03   .77  .08   .77  .05   .87  .06   .88  .06   .93  .09  1.05  .05   .99  .05  1.00  .07  1.11  .08  1.12  .03  1.08  .06  1.20  .06  1.30  .13 -9.99 -.99 -9.99 -.99 -9.99 -.99 -9.99 -.99 -9.99 -.99 -9.99 -.99 -9.99 -.99 -9.99 -.99 -9.99 -.99 -9.99 -.99 1979-06-20 1 0
  246 ---          .40  .03 -9.99 -.99   .46  .03   .60  .03   .67  .03   .79  .03   .86  .03   .94  .03   .97  .03  1.08  .03  1.13  .03  1.26  .03  1.28  .06  1.26  .03  1.33  .03  1.23  .03  1.21  .03  1.23  .06  1.20  .04  1.19  .03 -9.99 -.99  1.17  .03 -9.99 -.99 -9.99 -.99 -9.99 -.99 -9.99 -.99 1979-06-20 1 0
  258 ---          .61  .03 -9.99 -.99   .65  .03   .75  .03   .81  .03   .85  .03   .88  .03   .95  .03  1.02  .03  1.03  .03  1.05  .03  1.12  .03  1.19  .08  1.17  .03  1.22  .03  1.21  .03  1.17  .03 -9.99 -.99 -9.99 -.99 -9.99 -.99 -9.99 -.99 -9.99 -.99 -9.99 -.99 -9.99 -.99 -9.99 -.99 -9.99 -.99 1979-06-20 1 0
  262 ---          .07  .31 -9.99 -.99   .69  .22   .65  .07   .68  .04   .79  .06   .77  .04   .97  .04  1.05  .14   .91  .03  1.15  .07  1.17  .08  1.11  .02  1.06  .15  1.23  .07  1.32  .11  1.23  .11  1.09  .12  1.21  .25   .79  .28 -9.99 -.99  1.07  .28 -9.99 -.99 -9.99 -.99 -9.99 -.99 -9.99 -.99 1979-06-20 1 0
  264 ---          .69  .05 -9.99 -.99   .47  .33   .74  .10   .87  .03   .83  .03   .89  .03   .95  .08  1.00  .03  1.08  .03  1.09  .03  1.15  .03  1.20  .04  1.16  .05  1.28  .04  1.21  .03  1.36  .04 -9.99 -.99 -9.99 -.99 -9.99 -.99 -9.99 -.99 -9.99 -.99 -9.99 -.99 -9.99 -.99 -9.99 -.99 -9.99 -.99 1979-06-20 1 0
  268 ---          .84  .05 -9.99 -.99   .79  .07   .93  .03   .98  .03   .95  .03   .93  .03   .99  .03  1.00  .03   .96  .03   .96  .03  1.02  .03  1.05  .08   .99  .04  1.15  .04  1.05  .03  1.13  .06 -9.99 -.99 -9.99 -.99 -9.99 -.99 -9.99 -.99 -9.99 -.99 -9.99 -.99 -9.99 -.99 -9.99 -.99 -9.99 -.99 1979-06-20 1 0
  279 ---          .97  .06 -9.99 -.99   .87  .07   .89  .03   .89  .04   .89  .03   .93  .03   .98  .04  1.00  .03  1.00  .03  1.01  .03  1.05  .03  1.10  .09  1.08  .03  1.06  .06  1.06  .03  1.20  .12 -9.99 -.99 -9.99 -.99 -9.99 -.99 -9.99 -.99 -9.99 -.99 -9.99 -.99 -9.99 -.99 -9.99 -.99 -9.99 -.99 1979-06-20 1 0
  281 ---          .75  .06 -9.99 -.99   .58  .06   .74  .03   .79  .06   .82  .06  1.00  .07   .98  .03  1.00  .05  1.06  .03  1.12  .03  1.06  .03  1.14  .01  1.13  .03  1.20  .05  1.30  .09 -9.99 -.99 -9.99 -.99 -9.99 -.99 -9.99 -.99 -9.99 -.99 -9.99 -.99 -9.99 -.99 -9.99 -.99 -9.99 -.99 -9.99 -.99 1979-06-20 1 0
  293 ---        -9.99 -.99 -9.99 -.99 -9.99 -.99   .72  .06  1.00  .09  1.03  .05  1.00  .03   .99  .04  1.02  .03   .97  .03  1.06  .03   .98  .03   .92  .04   .89  .08  1.02  .03  1.06  .11   .99  .10 -9.99 -.99 -9.99 -.99 -9.99 -.99 -9.99 -.99 -9.99 -.99 -9.99 -.99 -9.99 -.99 -9.99 -.99 -9.99 -.99 1979-06-20 1 0
  308 ---          .60  .08 -9.99 -.99   .77  .16   .74  .04   .89  .03   .84  .03   .82  .03   .98  .05  1.00  .07  1.03  .04  1.08  .06  1.09  .03  1.18  .08  1.18  .11  1.04  .08  1.31  .03  1.17  .11 -9.99 -.99 -9.99 -.99 -9.99 -.99 -9.99 -.99 -9.99 -.99 -9.99 -.99 -9.99 -.99 -9.99 -.99 -9.99 -.99 1979-06-20 1 0
  313 ---          .67  .06 -9.99 -.99   .81  .03   .88  .03   .89  .03   .96  .03   .95  .04   .97  .03   .99  .03  1.03  .03  1.00  .03  1.01  .03  1.06  .03  1.01  .03  1.03  .03  1.05  .03  1.02  .03  1.01  .06  1.13  .04  1.02  .06 -9.99 -.99  1.04  .03  1.02  .17  1.03  .13   .96  .10 -9.99 -.99 1979-06-20 1 0
  323 ---          .73  .03 -9.99 -.99   .68  .04   .72  .03   .76  .03   .84  .03   .92  .03  1.00  .03  1.00  .03  1.03  .04  1.08  .03  1.22  .03  1.20  .03  1.13  .03  1.20  .04  1.26  .03 -9.99 -.99 -9.99 -.99 -9.99 -.99 -9.99 -.99 -9.99 -.99 -9.99 -.99 -9.99 -.99 -9.99 -.99 -9.99 -.99 -9.99 -.99 1979-06-20 1 0
  324 ---          .68  .08   .90  .20  1.00  .18   .90  .03   .87  .03  1.02  .03   .93  .03   .99  .03   .99  .03   .97  .03  1.01  .03   .94  .04   .99  .03   .99  .03   .94  .03   .97  .05  1.00  .08   .89  .13   .76  .17   .91  .08   .85  .10  1.00  .08   .92  .08  1.07  .08 -9.99 -.99 -9.99 -.99 1979-06-20 1 0
  325 ---          .81  .05 -9.99 -.99   .95  .05   .91  .03   .90  .03   .99  .03   .98  .03  1.01  .03   .97  .04  1.03  .03  1.07  .03  1.12  .03  1.09  .05  1.08  .03  1.14  .03  1.18  .03  1.05  .05  1.25  .07  1.05  .04  1.22  .08 -9.99 -.99  1.23  .09 -9.99 -.99 -9.99 -.99 -9.99 -.99 -9.99 -.99 1979-06-20 1 0
  326 ---        -9.99 -.99  1.13  .30   .89  .30   .87  .03   .87  .03   .97  .03   .96  .03  1.01  .04  1.00  .04  1.02  .05  1.02  .04   .97  .07   .96  .06   .98  .12  1.19  .19 -9.99 -.99 -9.99 -.99 -9.99 -.99 -9.99 -.99 -9.99 -.99 -9.99 -.99 -9.99 -.99 -9.99 -.99 -9.99 -.99 -9.99 -.99 -9.99 -.99 1979-06-20 1 0
  335 ---          .76  .15   .86  .06   .99  .04  1.01  .03   .93  .03  1.00  .03   .97  .03  1.00  .03  1.00  .03   .99  .03  1.02  .03   .97  .05  1.05  .03   .95  .03   .94  .03   .94  .10 -9.99 -.99 -9.99 -.99   .89  .06 -9.99 -.99   .93  .06 -9.99 -.99   .90  .10   .84  .25   .92  .25 -9.99 -.99 1979-06-20 1 0
  337 ---          .87  .15   .58  .33  1.12  .13   .90  .12   .77  .03   .86  .03   .79  .12   .96  .04  1.00  .03  1.13  .11  1.04  .07  1.10  .07  1.07  .03  1.13  .03  1.04  .03  1.07  .07 -9.99 -.99   .96  .03  1.05  .03 -9.99 -.99  1.10  .07 -9.99 -.99  1.06  .09 -9.99 -.99  1.04  .03  1.02  .03 1979-06-20 1 0
  338 ---          .88  .04 -9.99 -.99   .98  .06   .95  .03   .92  .03   .94  .03   .95  .03   .98  .03  1.00  .03   .98  .03   .97  .03   .97  .03  1.04  .08  1.01  .03  1.09  .03  1.09  .03  1.08  .04 -9.99 -.99 -9.99 -.99 -9.99 -.99 -9.99 -.99 -9.99 -.99 -9.99 -.99 -9.99 -.99 -9.99 -.99 -9.99 -.99 1979-06-20 1 0
  339 ---          .73  .04 -9.99 -.99   .58  .05   .77  .03   .88  .04   .90  .03   .89  .03   .98  .03   .95  .03  1.06  .03   .97  .03  1.09  .03  1.12  .09  1.04  .06  1.09  .03  1.03  .03  1.07  .07 -9.99 -.99 -9.99 -.99 -9.99 -.99 -9.99 -.99 -9.99 -.99 -9.99 -.99 -9.99 -.99 -9.99 -.99 -9.99 -.99 1979-06-20 1 0
  340 ---        -9.99 -.99 -9.99 -.99   .56  .19   .72  .04   .76  .03   .82  .04   .83  .04  1.00  .04  1.02  .04   .94  .03  1.07  .04  1.11  .05  1.05  .04  1.24 -.99  1.16  .05  1.04  .04  1.18  .14 -9.99 -.99 -9.99 -.99 -9.99 -.99 -9.99 -.99 -9.99 -.99 -9.99 -.99 -9.99 -.99 -9.99 -.99 -9.99 -.99 1979-06-20 1 0
  341 ---          .54  .03 -9.99 -.99   .60  .03   .65  .03   .69  .03   .82  .03   .89  .03   .93  .03  1.02  .03  1.06  .03  1.09  .03  1.14  .03  1.08  .01  1.20  .03 -9.99 -.99  1.10  .03  1.09  .03  1.13  .03  1.09  .04  1.07  .03 -9.99 -.99  1.15  .03  1.34  .03 -9.99 -.99 -9.99 -.99 -9.99 -.99 1979-06-20 1 0
  344 ---          .75  .07 -9.99 -.99   .74  .07   .92  .03   .93  .03   .92  .03   .97  .03   .99  .03  1.04  .03   .97  .03   .95  .03   .98  .03   .99  .04   .96  .03  1.00  .03  1.00  .03  1.02  .03   .93  .06  1.06  .05  1.11  .08 -9.99 -.99  1.08  .13   .90  .09  1.14  .19  1.09  .13 -9.99 -.99 1979-06-20 1 0
  345 ---          .42  .07 -9.99 -.99   .60  .08   .84  .05   .89  .04   .97  .03   .97  .04   .95  .03  1.00  .03  1.00  .03   .95  .03  1.03  .05  1.04  .05  1.02  .03  1.05  .03  1.04  .05   .94  .03   .97  .04   .96  .03   .94  .10 -9.99 -.99 -9.99 -.99 -9.99 -.99 -9.99 -.99 -9.99 -.99 -9.99 -.99 1979-06-20 1 0
  347 ---          .88  .06 -9.99 -.99   .83  .05   .82  .03   .88  .03   .91  .03  1.00  .03   .98  .03   .98  .03  1.07  .06  1.05  .03  1.09  .03   .98  .07  1.12  .03  1.11  .04  1.02  .03  1.09  .07  1.22  .04  1.08  .04   .99  .06 -9.99 -.99  1.10  .03 -9.99 -.99 -9.99 -.99 -9.99 -.99 -9.99 -.99 1979-06-20 1 0
  349 ---        -9.99 -.99   .38  .09   .53  .04   .64  .03   .69  .03   .81  .03   .83  .03   .96  .03  1.00  .03  1.06  .03  1.09  .03  1.07  .03  1.12  .09  1.12  .03  1.16  .03  1.04  .03   .99  .04   .84  .04   .83  .04 -9.99 -.99   .84  .04 -9.99 -.99   .88  .05 -9.99 -.99   .93  .05  1.20  .12 1979-06-20 1 0
  354 ---          .53  .17   .44  .06   .51  .03   .63  .03   .68  .03   .79  .03   .86  .03   .95  .03  1.00  .03  1.04  .03  1.11  .03  1.16  .04  1.21  .03  1.22  .03  1.23  .03  1.20  .04 -9.99 -.99 -9.99 -.99  1.11  .03 -9.99 -.99  1.08  .03 -9.99 -.99  1.05  .03  1.07  .04   .97  .05 -9.99 -.99 1979-06-20 1 0
  356 ---          .40  .10   .74  .10   .79  .10   .78  .03   .78  .03   .93  .05   .96  .03   .98  .03  1.00  .10  1.08  .03  1.09  .03  1.07  .06  1.07  .04  1.09  .03  1.04  .05 -9.99 -.99 -9.99 -.99 -9.99 -.99 -9.99 -.99 -9.99 -.99 -9.99 -.99 -9.99 -.99 -9.99 -.99 -9.99 -.99 -9.99 -.99 -9.99 -.99 1979-06-20 1 0
  361 ---          .85  .10 -9.99 -.99   .96  .03   .92  .04   .95  .03   .93  .03   .92  .03  1.03  .03  1.05  .04   .98  .04  1.01  .04  1.11  .05  1.13  .01  1.12  .04  1.18  .03  1.16  .04  1.20  .03 -9.99 -.99 -9.99 -.99 -9.99 -.99 -9.99 -.99 -9.99 -.99 -9.99 -.99 -9.99 -.99 -9.99 -.99 -9.99 -.99 1979-06-20 1 0
  363 ---        -9.99 -.99 -9.99 -.99   .76  .04   .90  .03   .91  .03   .94  .03   .98  .03  1.00  .03   .98  .03  1.05  .03  1.00  .03  1.03  .04  1.03  .03  1.08  .03  1.07  .03  1.09  .04  1.11  .04   .96  .03  1.15  .03  1.10  .07 -9.99 -.99  1.13  .12 -9.99 -.99 -9.99 -.99 -9.99 -.99 -9.99 -.99 1979-06-20 1 0
  365 ---        -9.99 -.99 -9.99 -.99   .87  .06   .87  .17  1.00  .07   .99  .03   .99  .03   .99  .10   .98  .08  1.03  .03  1.00  .06  1.12  .04 -9.99 -.99  1.10  .04  1.07  .05  1.14  .05  1.34  .07 -9.99 -.99 -9.99 -.99 -9.99 -.99 -9.99 -.99 -9.99 -.99 -9.99 -.99 -9.99 -.99 -9.99 -.99 -9.99 -.99 1979-06-20 1 0
  372 ---          .88  .17 -9.99 -.99   .89  .07  1.00  .05  1.06  .03   .95  .03   .99  .03   .95  .03  1.00  .03  1.04  .03  1.01  .03  1.01  .03  1.03  .02   .94  .03  1.01  .03   .92  .03   .96  .03 -9.99 -.99 -9.99 -.99 -9.99 -.99 -9.99 -.99 -9.99 -.99 -9.99 -.99 -9.99 -.99 -9.99 -.99 -9.99 -.99 1979-06-20 1 0
  374 ---          .49  .11 -9.99 -.99   .60  .08   .80  .03   .88  .03   .87  .03   .97  .03  1.01  .05   .98  .06  1.05  .03  1.11  .04  1.17  .06  1.17  .04  1.15  .03  1.24  .03  1.13  .12  1.03  .06 -9.99 -.99 -9.99 -.99 -9.99 -.99 -9.99 -.99 -9.99 -.99 -9.99 -.99 -9.99 -.99 -9.99 -.99 -9.99 -.99 1979-06-20 1 0
  375 ---          .79  .05 -9.99 -.99   .83  .03   .92  .03  1.01  .03   .95  .03   .96  .03   .96  .03  1.00  .03  1.00  .03  1.02  .03  1.02  .03  1.03  .05  1.00  .03  1.01  .03   .99  .03   .98  .06 -9.99 -.99 -9.99 -.99 -9.99 -.99 -9.99 -.99 -9.99 -.99 -9.99 -.99 -9.99 -.99 -9.99 -.99 -9.99 -.99 1979-06-20 1 0
  386 ---          .76  .03 -9.99 -.99   .85  .03   .87  .03   .88  .03   .93  .03   .94  .03   .99  .03  1.02  .03   .98  .03   .99  .03  1.00  .03  1.01  .06   .97  .03  1.04  .03  1.00  .03  1.01  .03  1.00  .03   .94  .03   .91  .03 -9.99 -.99   .99  .03   .95  .03   .94  .05   .87  .03 -9.99 -.99 1979-06-20 1 0
  389 ---          .69  .03 -9.99 -.99   .71  .03   .76  .03   .84  .03   .90  .03   .90  .03   .96  .03  1.02  .03  1.01  .03  1.02  .03  1.07  .03  1.12  .09  1.16  .03  1.18  .03  1.13  .03  1.12  .03 -9.99 -.99 -9.99 -.99 -9.99 -.99 -9.99 -.99 -9.99 -.99 -9.99 -.99 -9.99 -.99 -9.99 -.99 -9.99 -.99 1979-06-20 1 0
  391 ---          .70  .03 -9.99 -.99   .63  .03   .75  .03   .80  .03   .81  .03   .92  .03   .90  .03  1.02  .03  1.07  .03  1.13  .03  1.18  .03  1.17  .01  1.22  .03  1.22  .05  1.17  .03 -9.99 -.99 -9.99 -.99 -9.99 -.99 -9.99 -.99 -9.99 -.99 -9.99 -.99 -9.99 -.99 -9.99 -.99 -9.99 -.99 -9.99 -.99 1979-06-20 1 0
  402 ---        -9.99 -.99   .39  .23   .74  .11   .78  .03   .78  .03   .86  .03   .93  .03   .97  .03  1.00  .03  1.05  .03  1.03  .03  1.00  .05  1.08  .02  1.08  .05  1.11  .05  1.05  .15 -9.99 -.99 -9.99 -.99 -9.99 -.99 -9.99 -.99  1.19  .07 -9.99 -.99  1.01  .08   .79  .20   .97  .20 -9.99 -.99 1979-06-20 1 0
  403 ---          .54  .13 -9.99 -.99   .76  .10   .72  .04   .81  .04   .81  .03   .93  .03   .91  .07  1.00  .03  1.03  .04  1.03  .03  1.08  .05  1.08  .03  1.07  .03   .99  .05   .99  .06  1.00  .03 -9.99 -.99 -9.99 -.99 -9.99 -.99 -9.99 -.99 -9.99 -.99 -9.99 -.99 -9.99 -.99 -9.99 -.99 -9.99 -.99 1979-06-20 1 0
  409 ---          .78  .08   .80  .11   .76  .08   .84  .07   .88  .03   .94  .03   .95  .03   .96  .03  1.02  .03   .99  .03  1.12  .03  1.07  .09  1.07  .03  1.10  .03  1.14  .03  1.05  .03  1.11  .03  1.12  .04  1.05  .05  1.10  .04 -9.99 -.99  1.14  .04  1.02  .04   .98  .05   .96  .08 -9.99 -.99 1979-06-20 1 0
  413 ---          .84  .10 -9.99 -.99   .90  .11   .99  .03   .97  .03   .92  .03   .89  .03  1.01  .04  1.00  .03  1.00  .04  1.01  .03  1.11  .04  1.15  .03  1.01  .03  1.12  .03  1.10  .03  1.18  .04 -9.99 -.99 -9.99 -.99 -9.99 -.99 -9.99 -.99 -9.99 -.99 -9.99 -.99 -9.99 -.99 -9.99 -.99 -9.99 -.99 1979-06-20 1 0
  415 ---        -9.99 -.99 -9.99 -.99  1.18  .09   .87  .06   .91  .08   .89  .07  1.21  .10   .97  .06   .80  .10   .94  .20  1.09  .06  1.12  .05  1.06  .09  1.02  .15  1.14  .08  1.05  .26  1.27  .06  1.05  .06  1.11  .06  1.17  .08 -9.99 -.99  1.02  .08  1.09  .08  1.14  .08   .97  .08 -9.99 -.99 1979-06-20 1 0
  416 ---          .55  .04 -9.99 -.99   .65  .03   .74  .03   .85  .03   .83  .03   .90  .03   .95  .03  1.00  .03  1.04  .03  1.10  .03  1.17  .03  1.18  .06  1.16  .03  1.17  .03  1.18  .03  1.18  .03 -9.99 -.99 -9.99 -.99 -9.99 -.99 -9.99 -.99 -9.99 -.99 -9.99 -.99 -9.99 -.99 -9.99 -.99 -9.99 -.99 1979-06-20 1 0
  419 ---          .94  .06 -9.99 -.99   .96  .06  1.00  .04   .96  .04   .96  .03   .92  .03  1.04  .05  1.00  .06  1.03  .05  1.04  .05  1.06  .04  1.09  .09  1.02  .04  1.00  .03   .97  .03  1.02  .03   .94  .03  1.00  .03   .94  .04 -9.99 -.99   .97  .03  1.00  .06   .83  .10   .89  .09 -9.99 -.99 1979-06-20 1 0
  423 ---          .89  .04 -9.99 -.99   .84  .04   .99  .03  1.04  .03  1.01  .03   .98  .03  1.01  .03  1.00  .03  1.01  .03  1.00  .03  1.01  .03  1.08  .03   .97  .03  1.02  .04   .97  .03   .97  .03 -9.99 -.99 -9.99 -.99 -9.99 -.99 -9.99 -.99 -9.99 -.99 -9.99 -.99 -9.99 -.99 -9.99 -.99 -9.99 -.99 1979-06-20 1 0
  426 ---          .94  .03 -9.99 -.99   .90  .03   .91  .03   .94  .03   .97  .03   .95  .03  1.01  .03  1.02  .03   .98  .03   .97  .03   .99  .03  1.02  .06  1.00  .03  1.00  .03   .98  .03   .97  .06 -9.99 -.99 -9.99 -.99 -9.99 -.99 -9.99 -.99 -9.99 -.99 -9.99 -.99 -9.99 -.99 -9.99 -.99 -9.99 -.99 1979-06-20 1 0
  433 ---          .52  .03   .55  .03   .54  .03   .69  .03 -9.99 -.99   .79  .01   .86  .01   .92  .02  1.03  .01  1.04  .01  1.14  .01  1.18  .02  1.18  .03  1.22  .02  1.27  .02  1.21  .02  1.16  .03  1.15  .03  1.17  .03  1.17  .03 -9.99 -.99  1.16  .04 -9.99 -.99 -9.99 -.99 -9.99 -.99 -9.99 -.99 1986-05-13 2 0
  434 ---        -9.99 -.99 -9.99 -.99   .64  .05   .85  .03   .95  .03   .89  .03   .89  .05   .95  .03  1.03  .03  1.02  .03  1.03  .03  1.08  .03  1.12  .08  1.07  .04  1.16  .05  1.15  .06  1.03  .07  1.04  .05   .96  .05   .97  .12 -9.99 -.99 -9.99 -.99 -9.99 -.99 -9.99 -.99 -9.99 -.99 -9.99 -.99 1979-06-20 1 0
  435 ---          .91  .22 -9.99 -.99   .88  .17   .96  .05   .77  .06   .98  .03   .87  .05   .85  .09  1.03  .09  1.05  .03   .96  .06   .93  .10 -9.99 -.99  1.19  .15  1.27  .09  1.14  .08  1.40  .10 -9.99 -.99 -9.99 -.99 -9.99 -.99 -9.99 -.99 -9.99 -.99 -9.99 -.99 -9.99 -.99 -9.99 -.99 -9.99 -.99 1979-06-20 1 0
  439 ---          .82  .06 -9.99 -.99   .89  .09   .86  .03   .90  .03   .93  .03   .95  .03   .99  .03  1.02  .03  1.00  .03   .98  .03  1.00  .03  1.01  .09   .99  .03  1.03  .03   .97  .03   .97  .11 -9.99 -.99 -9.99 -.99 -9.99 -.99 -9.99 -.99 -9.99 -.99 -9.99 -.99 -9.99 -.99 -9.99 -.99 -9.99 -.99 1979-06-20 1 0
  441 ---          .79  .18 -9.99 -.99   .99  .23   .84  .13   .84  .05  1.03  .05   .95  .03   .92  .03  1.02  .03  1.04  .06  1.08  .03  1.08  .07  1.20  .01  1.14  .03  1.16  .03  1.14  .03  1.19  .03 -9.99 -.99 -9.99 -.99 -9.99 -.99 -9.99 -.99 -9.99 -.99 -9.99 -.99 -9.99 -.99 -9.99 -.99 -9.99 -.99 1979-06-20 1 0
  446 ---        -9.99 -.99 -9.99 -.99 -9.99 -.99   .47  .03   .55  .03   .73  .03   .76  .03   .88  .03  1.03  .03  1.05  .03  1.19  .03  1.23  .03  1.29  .03  1.29  .03  1.28  .06  1.26  .03  1.29  .03  1.25  .03  1.24  .04  1.32  .07 -9.99 -.99   .93  .09  1.12  .09  1.26  .11 -9.99 -.99 -9.99 -.99 1979-06-20 1 0
  453 ---          .54  .03 -9.99 -.99   .53  .03   .65  .03   .73  .03   .82  .03   .87  .03   .94  .03  1.00  .03  1.05  .03  1.10  .03  1.15  .03  1.17  .03  1.18  .03  1.22  .03  1.14  .03  1.07  .04 -9.99 -.99 -9.99 -.99 -9.99 -.99 -9.99 -.99 -9.99 -.99 -9.99 -.99 -9.99 -.99 -9.99 -.99 -9.99 -.99 1979-06-20 1 0
  462 ---          .53  .20   .75  .16   .66  .12   .70  .04   .72  .04   .90  .04   .88  .04   .96  .05  1.02  .04   .97  .04  1.13  .03  1.12  .02  1.09  .04  1.19  .05  1.35  .11  1.22  .08  1.08  .07  1.11  .06  1.16  .04  1.14  .10 -9.99 -.99  1.20  .07  1.16  .07  1.18  .15  1.14  .12 -9.99 -.99 1979-06-20 1 0
  468 ---          .82  .03 -9.99 -.99   .91  .03   .96  .04   .90  .03   .95  .03  1.07  .05  1.02  .03  1.00  .03  1.05  .03  1.03  .03  1.00  .03 -9.99 -.99  1.02  .08  1.01  .03  1.00  .03   .90  .03  1.00  .03  1.01  .04   .98  .05 -9.99 -.99  1.01  .06  1.16  .09 -9.99 -.99 -9.99 -.99 -9.99 -.99 1979-06-20 1 0
  471 ---          .53  .03 -9.99 -.99   .63  .03   .76  .03   .81  .03   .85  .03   .93  .03   .96  .03  1.00  .03  1.00  .03  1.01  .03  1.09  .03  1.12  .01  1.09  .03  1.17  .03  1.15  .03  1.09  .03 -9.99 -.99 -9.99 -.99 -9.99 -.99 -9.99 -.99 -9.99 -.99 -9.99 -.99 -9.99 -.99 -9.99 -.99 -9.99 -.99 1979-06-20 1 0
  472 ---          .27  .14 -9.99 -.99   .60  .30   .70  .04   .81  .07   .97  .05   .92  .04   .97  .08   .95  .11  1.13  .03  1.07  .04  1.23  .03  1.19  .12  1.25  .09  1.43  .07  1.30  .03  1.18  .14 -9.99 -.99 -9.99 -.99 -9.99 -.99 -9.99 -.99 -9.99 -.99 -9.99 -.99 -9.99 -.99 -9.99 -.99 -9.99 -.99 1979-06-20 1 0
  481 ---          .69  .10   .60  .12   .75  .09   .82  .03   .84  .03   .91  .03   .91  .03   .92  .03  1.03  .03   .99  .05   .99  .04  1.00  .01  1.02  .04   .99  .04   .94  .05   .97  .04   .97  .05  1.02  .05   .96  .08  1.30  .12 -9.99 -.99   .86  .08  1.00  .08  1.27  .10  1.05  .15 -9.99 -.99 1979-06-20 1 0
  488 ---          .72  .03 -9.99 -.99   .83  .03   .87  .03   .80  .03   .92  .03   .98  .03  1.00  .03  1.00  .03  1.00  .03   .97  .05  1.05  .03 -9.99 -.99  1.01  .08  1.01  .03   .99  .05   .95  .04  1.00  .04   .97  .05  1.08  .05 -9.99 -.99   .99  .05   .90  .17 -9.99 -.99 -9.99 -.99 -9.99 -.99 1979-06-20 1 0
  490 ---          .72  .04 -9.99 -.99   .85  .07   .90  .03   .91  .03   .97  .03   .97  .03   .99  .03  1.00  .03   .96  .03  1.02  .03  1.08  .03  1.04 -.99   .98  .03  1.06  .04  1.15  .03  1.05  .03 -9.99 -.99 -9.99 -.99 -9.99 -.99 -9.99 -.99 -9.99 -.99 -9.99 -.99 -9.99 -.99 -9.99 -.99 -9.99 -.99 1979-06-20 1 0
  496 ---          .25  .10 -9.99 -.99   .46  .05   .62  .03   .72  .03   .85  .03   .89  .03   .96  .04  1.00  .03  1.00  .03  1.06  .03  1.11  .03 -9.99 -.99  1.10  .06  1.12  .03  1.05  .05   .99  .05  1.00  .04  1.02  .05   .99  .05 -9.99 -.99  1.03  .06 -9.99 -.99 -9.99 -.99 -9.99 -.99 -9.99 -.99 1979-06-20 1 0
  505 ---          .95  .10   .78  .13 -9.99 -.99   .97  .04   .91  .03   .99  .04   .97  .04  1.01  .04  1.00  .04   .99  .04  1.01  .04  1.01  .04  1.02  .05  1.04  .04  1.10  .04  1.10  .04  1.05  .04  1.01  .04   .97  .04   .92  .05 -9.99 -.99   .94  .05  1.07  .05   .96  .08  1.00  .10 -9.99 -.99 1979-06-20 1 0
  510 ---          .80  .03 -9.99 -.99   .82  .03   .78  .03   .84  .03   .88  .03   .90  .03   .99  .03  1.00  .05  1.03  .03  1.03  .03  1.10  .03  1.13 -.99  1.13  .03  1.16  .03  1.14  .03  1.12  .05 -9.99 -.99 -9.99 -.99 -9.99 -.99 -9.99 -.99 -9.99 -.99 -9.99 -.99 -9.99 -.99 -9.99 -.99 -9.99 -.99 1979-06-20 1 0
  511 ---          .75  .20   .66  .15   .69  .10   .86  .04   .89  .03  1.03  .03   .97  .03   .99  .03   .99  .03  1.00  .03  1.02  .03  1.04  .01  1.04  .03  1.00  .03  1.04  .03   .97  .03  1.02  .05  1.00  .03   .97  .04   .92  .05   .95  .04   .99  .05   .90  .05   .98  .05 -9.99 -.99 -9.99 -.99 1979-06-20 1 0
  513 ---        -9.99 -.99 -9.99 -.99   .62  .03   .75  .11   .88  .03   .81  .08   .90  .05   .96  .12  1.00  .10  1.05  .06  1.05  .09  1.12  .03  1.21  .07  1.14  .03  1.04  .05  1.22  .10  1.13  .18 -9.99 -.99 -9.99 -.99 -9.99 -.99 -9.99 -.99 -9.99 -.99 -9.99 -.99 -9.99 -.99 -9.99 -.99 -9.99 -.99 1979-06-20 1 0
  526 ---        -9.99 -.99 -9.99 -.99   .50  .36   .96  .15  1.07  .06   .98  .03  1.02  .04  1.00  .07   .97  .06  1.02  .05  1.02  .03  1.04  .04  1.05  .11  1.12  .06  1.04  .08   .92  .04   .84  .14 -9.99 -.99 -9.99 -.99 -9.99 -.99 -9.99 -.99 -9.99 -.99 -9.99 -.99 -9.99 -.99 -9.99 -.99 -9.99 -.99 1979-06-20 1 0
  532 ---          .51  .04   .57  .03   .63  .03   .73  .03   .75  .03   .86  .03   .88  .03   .96  .03  1.00  .03  1.03  .03  1.09  .03  1.08  .02  1.13  .03  1.13  .03  1.14  .03  1.14  .03 -9.99 -.99 -9.99 -.99  1.03  .03 -9.99 -.99  1.06  .03 -9.99 -.99  1.08  .03  1.12  .03  1.09  .05 -9.99 -.99 1979-06-20 1 0
  554 ---          .77  .05   .79  .08   .80  .04   .90  .03   .88  .03   .95  .03   .98  .03  1.00  .03  1.00  .03  1.00  .03  1.01  .03   .98  .04  1.00  .03   .99  .03  1.03  .03  1.03  .03  1.03  .03  1.00  .03  1.02  .03  1.07  .03 -9.99 -.99   .97  .03   .98  .10   .98  .10  1.02  .10 -9.99 -.99 1979-06-20 1 0
  558 ---        -9.99 -.99 -9.99 -.99   .80  .35   .76  .11   .87  .10   .84  .09   .80  .03   .97  .06  1.03  .04   .96  .04   .95  .03   .88  .04   .90  .05   .98  .08   .78  .08   .75  .05   .78  .06   .68  .08   .77  .12   .54  .08 -9.99 -.99 -9.99 -.99 -9.99 -.99 -9.99 -.99 -9.99 -.99 -9.99 -.99 1979-06-20 1 0
  560 ---        -9.99 -.99 -9.99 -.99   .74  .04  1.04  .03   .90  .05   .91  .05   .93  .09  1.10  .12   .95  .12  1.02  .05   .95  .12   .95  .12   .99  .13  1.16 -.99   .85  .18 -9.99 -.99 -9.99 -.99 -9.99 -.99 -9.99 -.99 -9.99 -.99 -9.99 -.99 -9.99 -.99 -9.99 -.99 -9.99 -.99 -9.99 -.99 -9.99 -.99 1979-06-20 1 0
  562 ---          .10  .21 -9.99 -.99   .77  .17   .90  .06   .83  .03   .87  .05   .97  .03  1.03  .07  1.03  .06   .91  .04  1.01  .04  1.12  .05   .96  .02  1.30  .10  1.15  .09  1.26  .11  1.07  .16   .93  .09  1.53  .12   .88  .08 -9.99 -.99   .88  .13 -9.99 -.99 -9.99 -.99 -9.99 -.99 -9.99 -.99 1979-06-20 1 0
  563 ---          .71  .08   .58  .08   .69  .08   .62  .07  1.01  .08   .94  .08  1.02  .08   .90  .08  1.00  .08  1.11  .08  1.10  .08  1.29  .03  1.20  .08  1.18  .08  1.24  .08  1.26  .08 -9.99 -.99  1.07  .08  1.04  .08 -9.99 -.99  1.18  .08 -9.99 -.99  1.32  .08 -9.99 -.99  1.27  .08 -9.99 -.99 1979-06-20 1 0
  574 ---          .50  .11 -9.99 -.99   .57  .06   .73  .03   .79  .03   .84  .03   .86  .03   .95  .03  1.00  .04  1.00  .03  1.05  .03  1.13  .03  1.17  .04  1.23  .06  1.34  .08  1.29  .06  1.18  .03 -9.99 -.99 -9.99 -.99 -9.99 -.99 -9.99 -.99 -9.99 -.99 -9.99 -.99 -9.99 -.99 -9.99 -.99 -9.99 -.99 1979-06-20 1 0
  579 ---          .60  .05 -9.99 -.99   .67  .04   .77  .03   .80  .03   .90  .03   .91  .03   .95  .03  1.00  .03  1.01  .03  1.00  .03  1.09  .03  1.02  .09  1.10  .03  1.03  .03  1.12  .03  1.10  .03 -9.99 -.99 -9.99 -.99 -9.99 -.99 -9.99 -.99 -9.99 -.99 -9.99 -.99 -9.99 -.99 -9.99 -.99 -9.99 -.99 1979-06-20 1 0
  582 ---          .71  .03 -9.99 -.99   .62  .09   .66  .03   .72  .03   .76  .03   .80  .03   .98  .03  1.00  .03  1.05  .03  1.16  .05  1.09  .03  1.15  .02  1.10  .03  1.13  .06  1.18  .03 -9.99 -.99 -9.99 -.99 -9.99 -.99 -9.99 -.99 -9.99 -.99 -9.99 -.99 -9.99 -.99 -9.99 -.99 -9.99 -.99 -9.99 -.99 1979-06-20 1 0
  584 ---        -9.99 -.99   .83  .20   .69  .12   .60  .03   .70  .03   .80  .03   .86  .03   .90  .03  1.00  .03  1.05  .03  1.09  .03  1.11  .03  1.16  .04  1.18  .03  1.14  .05  1.34  .20 -9.99 -.99 -9.99 -.99  1.11  .15 -9.99 -.99  1.03  .15 -9.99 -.99  1.12  .20 -9.99 -.99 -9.99 -.99 -9.99 -.99 1979-06-20 1 0
  588 ---          .79  .09 -9.99 -.99   .81  .14   .84  .03   .83  .03   .92  .05   .98  .04   .97  .06  1.00  .05  1.04  .05  1.11  .06  1.07  .04  1.19  .08  1.17  .03  1.07  .04  1.24  .05  1.30  .03  1.52  .10  1.50  .06  1.40  .18 -9.99 -.99  1.64  .13 -9.99 -.99 -9.99 -.99 -9.99 -.99 -9.99 -.99 1979-06-20 1 0
  599 ---          .57  .03 -9.99 -.99   .67  .05   .80  .03   .84  .03   .88  .03   .97  .04   .96  .05  1.00  .05  1.00  .03  1.08  .03  1.11  .05  1.12  .09  1.15  .03  1.17  .03  1.20  .03  1.31  .03 -9.99 -.99 -9.99 -.99 -9.99 -.99 -9.99 -.99 -9.99 -.99 -9.99 -.99 -9.99 -.99 -9.99 -.99 -9.99 -.99 1979-06-20 1 0
  613 ---          .81  .13 -9.99 -.99   .60  .08   .88  .03   .95  .03   .93  .03   .94  .03  1.00  .03  1.00  .03   .97  .03  1.12  .04  1.03  .04  1.11  .03  1.02  .03  1.13  .06  1.12  .08  1.19  .06 -9.99 -.99 -9.99 -.99 -9.99 -.99 -9.99 -.99 -9.99 -.99 -9.99 -.99 -9.99 -.99 -9.99 -.99 -9.99 -.99 1979-06-20 1 0
  617 ---          .96  .05 -9.99 -.99   .92  .03   .92  .03   .92  .03   .99  .03   .98  .03  1.02  .03   .97  .03  1.04  .04  1.06  .04  1.11  .04 -9.99 -.99  1.12  .07  1.14  .03  1.14  .03   .99  .05  1.21  .06  1.03  .05   .99  .06 -9.99 -.99  1.11  .09 -9.99 -.99 -9.99 -.99 -9.99 -.99 -9.99 -.99 1979-06-20 1 0
  624 ---          .47  .25   .60  .20   .66  .12   .83  .05   .80  .04   .91  .03   .96  .03   .95  .03  1.03  .04   .99  .03  1.12  .04  1.17  .04  1.21  .06  1.22  .04  1.19  .05  1.27  .06  1.34  .07  1.56  .05  1.20  .11  1.44  .09 -9.99 -.99  1.37  .17  1.63  .18  1.40  .25 -9.99 -.99 -9.99 -.99 1979-06-20 1 0
  628 ---          .52  .03 -9.99 -.99   .67  .04   .71  .03   .79  .03   .87  .03   .96  .03  1.00  .03   .98  .03  1.02  .03  1.10  .03  1.12  .03  1.24  .08  1.19  .04  1.23  .05  1.34  .03  1.24  .03  1.41  .06  1.36  .06  1.30  .04 -9.99 -.99  1.39  .03 -9.99 -.99 -9.99 -.99 -9.99 -.99 -9.99 -.99 1979-06-20 1 0
  639 ---          .70  .03 -9.99 -.99   .78  .03   .75  .03   .81  .03   .84  .03   .90  .03   .95  .03  1.03  .03   .99  .03  1.03  .03  1.10  .03  1.14  .09  1.17  .07  1.13  .03  1.16  .05 -9.99 -.99 -9.99 -.99 -9.99 -.99 -9.99 -.99 -9.99 -.99 -9.99 -.99 -9.99 -.99 -9.99 -.99 -9.99 -.99 -9.99 -.99 1979-06-20 1 0
  648 ---          .58  .14 -9.99 -.99  1.10  .14   .85  .05   .98  .03   .86  .05   .81  .03   .96  .03  1.00  .03  1.00  .05  1.01  .06  1.00  .03  1.12  .08   .95  .06  1.07  .07   .92  .09   .99  .03 -9.99 -.99 -9.99 -.99 -9.99 -.99 -9.99 -.99 -9.99 -.99 -9.99 -.99 -9.99 -.99 -9.99 -.99 -9.99 -.99 1979-06-20 1 0
  654 ---        -9.99 -.99   .45  .14   .77  .05   .79  .03   .81  .03   .94  .03   .91  .03   .99  .03  1.00  .03   .99  .03  1.01  .03   .95  .03   .96  .04   .98  .04   .99  .05   .97  .03   .94  .03   .95  .05   .96  .05 -9.99 -.99  1.05  .05 -9.99 -.99   .93  .06 -9.99 -.99   .94  .10  1.10  .22 1979-06-20 1 0
  660 ---        -9.99 -.99 -9.99 -.99   .78  .08   .72  .05   .75  .04   .72  .10   .98  .06   .71  .03  1.13  .13  1.03  .17  1.00  .06  1.19  .08  1.22  .09  1.09  .10  1.32  .11  1.17  .11 -9.99 -.99 -9.99 -.99 -9.99 -.99 -9.99 -.99 -9.99 -.99 -9.99 -.99 -9.99 -.99 -9.99 -.99 -9.99 -.99 -9.99 -.99 1979-06-20 1 0
  674 ---          .57  .03   .61  .04   .63  .03   .69  .03   .74  .03   .86  .03   .87  .03   .97  .03  1.00  .03  1.04  .03  1.09  .03  1.09  .04  1.15  .03  1.17  .03  1.17  .04  1.20  .03  1.14  .05  1.12  .03  1.13  .03  1.13  .03 -9.99 -.99  1.19  .03  1.11  .03  1.24  .04  1.27  .05 -9.99 -.99 1979-06-20 1 0
  676 ---          .74  .03 -9.99 -.99   .81  .03   .80  .03   .84  .03   .90  .03   .97  .06   .98  .03  1.02  .03   .98  .03   .98  .03  1.04  .03  1.04  .06   .99  .03  1.10  .03  1.04  .03  1.20  .12 -9.99 -.99 -9.99 -.99 -9.99 -.99 -9.99 -.99 -9.99 -.99 -9.99 -.99 -9.99 -.99 -9.99 -.99 -9.99 -.99 1979-06-20 1 0
  695 ---          .49  .08 -9.99 -.99   .64  .05   .72  .03   .82  .03   .86  .03   .93  .03   .93  .03  1.00  .03  1.06  .03  1.06  .03  1.15  .03  1.16  .05  1.16  .03  1.17  .03  1.21  .03  1.12  .03  1.22  .19  1.33  .28   .91  .09 -9.99 -.99   .94  .06   .86  .08  1.19  .14  1.02  .29 -9.99 -.99 1979-06-20 1 0
  696 ---          .79  .03 -9.99 -.99   .88  .03   .88  .03   .91  .03  1.01  .03   .98  .04  1.01  .03  1.00  .03  1.00  .03  1.04  .03  1.08  .03 -9.99 -.99  1.06  .06  1.12  .04  1.02  .03  1.01  .03  1.05  .03  1.08  .05  1.11  .03 -9.99 -.99   .95  .03   .88  .14 -9.99 -.99 -9.99 -.99 -9.99 -.99 1979-06-20 1 0
  704 ---          .88  .07   .88  .06   .95  .06   .94  .05   .92  .05   .94  .03   .93  .03  1.02  .03  1.00  .03   .98  .03   .96  .03   .96  .04  1.03  .03  1.02  .03   .97  .04   .97  .08 -9.99 -.99   .92  .04   .86  .04 -9.99 -.99   .91  .04 -9.99 -.99   .92  .03 -9.99 -.99   .94  .03 -9.99 -.99 1979-06-20 1 0
  712 ---          .80  .03 -9.99 -.99   .78  .03   .93  .03   .91  .03   .97  .03   .96  .03  1.03  .04  1.00  .03  1.01  .03   .97  .03  1.04  .03  1.05  .02  1.01  .03  1.03  .03  1.02  .03  1.05  .03  1.05  .03  1.06  .05  1.03  .05 -9.99 -.99  1.04  .04  1.06  .03   .99  .06   .97  .07 -9.99 -.99 1979-06-20 1 0
  714 ---          .56  .10   .64  .20   .72  .10   .70  .03   .66  .04   .88  .03   .91  .03   .91  .03  1.02  .03  1.05  .03  1.12  .03  1.11  .04  1.14  .03  1.20  .04  1.08  .04  1.12  .04  1.12  .05  1.18  .05  1.03  .05  1.16  .07 -9.99 -.99  1.01  .06  1.24  .06  1.06  .07  1.18  .11 -9.99 -.99 1979-06-20 1 0
  739 ---        -9.99 -.99   .88  .12   .93  .07   .96  .03   .87  .03  1.02  .03  1.01  .03  1.00  .03   .98  .03  1.04  .03  1.02  .03  1.04  .04  1.00  .09  1.07  .03  1.03  .07  1.12  .09 -9.99 -.99   .94  .07  1.11  .12 -9.99 -.99  1.11  .11 -9.99 -.99  1.15  .23 -9.99 -.99 -9.99 -.99 -9.99 -.99 1979-06-20 1 0
  741 ---        -9.99 -.99 -9.99 -.99   .93  .25   .92  .05   .88  .03   .93  .03   .96  .03  1.02  .03   .98  .04  1.01  .03  1.02  .07  1.03  .03  1.05  .03  1.03  .01  1.15  .06  1.14  .07  1.04  .07 -9.99 -.99 -9.99 -.99 -9.99 -.99 -9.99 -.99 -9.99 -.99 -9.99 -.99 -9.99 -.99 -9.99 -.99 -9.99 -.99 1979-06-20 1 0
  747 ---        -9.99 -.99 -9.99 -.99   .72  .07   .95  .07  1.03  .06  1.01  .07   .94  .07   .85  .07  1.08  .07   .99  .06  1.06  .07   .93  .09   .92  .07   .87  .07  1.14  .18   .96  .17   .99  .07   .89  .07   .96  .08   .94  .11 -9.99 -.99   .99  .07  1.24  .09  1.20  .07  1.10  .08 -9.99 -.99 1979-06-20 1 0
  750 ---        -9.99 -.99 -9.99 -.99  1.09  .18  1.10  .10  1.10  .09   .98  .05  1.00  .03   .87  .05  1.08  .08   .96  .03  1.08  .05   .97  .03   .92  .05   .89 -.99  1.01  .06  1.03  .10   .97  .12 -9.99 -.99 -9.99 -.99 -9.99 -.99 -9.99 -.99 -9.99 -.99 -9.99 -.99 -9.99 -.99 -9.99 -.99 -9.99 -.99 1979-06-20 1 0
  758 ---          .78  .03 -9.99 -.99   .83  .03   .86  .03   .92  .03   .95  .03   .97  .03   .99  .03  1.00  .03  1.02  .03  1.04  .03  1.08  .03 -9.99 -.99  1.12  .08  1.18  .03  1.17  .04  1.08  .03  1.15  .03  1.08  .03  1.05  .03 -9.99 -.99  1.09  .03  1.06  .08 -9.99 -.99 -9.99 -.99 -9.99 -.99 1979-06-20 1 0
  760 ---          .48  .03 -9.99 -.99   .58  .03   .72  .03   .73  .03   .86  .03   .91  .03   .99  .03   .98  .03  1.05  .03  1.07  .03  1.19  .03  1.17 -.99  1.21  .03  1.27  .03  1.20  .03  1.14  .03  1.23  .03  1.11  .03  1.12  .03 -9.99 -.99  1.13  .04 -9.99 -.99 -9.99 -.99 -9.99 -.99 -9.99 -.99 1979-06-20 1 0
  770 ---          .22  .15 -9.99 -.99   .37  .23   .60  .05   .64  .06   .80  .06   .88  .03   .97  .06  1.05  .05   .89  .04  1.08  .03  1.11  .05  1.00 -.99  1.27  .06  1.18  .03  1.11  .09  1.12  .14  1.30  .12   .98  .10   .77  .13 -9.99 -.99  1.00  .09 -9.99 -.99 -9.99 -.99 -9.99 -.99 -9.99 -.99 1979-06-20 1 0
  772 ---        -9.99 -.99 -9.99 -.99   .57  .07   .87  .16   .88  .06   .87  .11  1.17  .06  1.01  .16  1.00  .05   .94  .08  1.19  .09  1.09  .04  1.07  .06   .85  .02  1.05  .13   .74  .05   .57  .11 -9.99 -.99 -9.99 -.99 -9.99 -.99 -9.99 -.99 -9.99 -.99 -9.99 -.99 -9.99 -.99 -9.99 -.99 -9.99 -.99 1979-06-20 1 0
  773 ---          .81  .03 -9.99 -.99   .81  .03   .88  .03   .88  .03   .93  .03   .99  .03   .96  .03  1.00  .03  1.01  .04  1.04  .05  1.06  .03  1.18  .03  1.18  .03  1.26  .03  1.22  .03  1.39  .09 -9.99 -.99 -9.99 -.99 -9.99 -.99 -9.99 -.99 -9.99 -.99 -9.99 -.99 -9.99 -.99 -9.99 -.99 -9.99 -.99 1979-06-20 1 0
  781 ---          .55  .24 -9.99 -.99   .38  .10   .85  .05  1.01  .03  1.00  .07   .98  .04   .96  .09  1.00  .08  1.08  .06  1.03  .08  1.16  .04  1.06  .01  1.04  .06  1.19  .12  1.28  .15  1.16  .14 -9.99 -.99   .87  .27   .81  .30 -9.99 -.99  1.08  .35 -9.99 -.99 -9.99 -.99 -9.99 -.99 -9.99 -.99 1979-06-20 1 0
  782 ---          .59  .46 -9.99 -.99   .32  .17   .69  .05   .71  .06   .79  .05   .84  .07   .94  .04  1.00  .08  1.05  .04  1.03  .06  1.25  .05  1.17  .02  1.10  .10  1.04  .17  1.32  .17  1.00  .13 -9.99 -.99 -9.99 -.99 -9.99 -.99 -9.99 -.99 -9.99 -.99 -9.99 -.99 -9.99 -.99 -9.99 -.99 -9.99 -.99 1979-06-20 1 0
  783 ---          .55  .41 -9.99 -.99   .49  .24   .88  .07   .85  .08   .89  .09   .99  .04   .99  .10   .87  .04  1.07  .07  1.07  .03  1.12  .05   .88  .03  1.02  .06  1.14  .17   .85  .17  1.01  .16  1.11  .26   .86  .25  1.04  .28 -9.99 -.99   .99  .34 -9.99 -.99 -9.99 -.99 -9.99 -.99 -9.99 -.99 1979-06-20 1 0
  785 ---         1.00  .07 -9.99 -.99  1.00  .06   .98  .03  1.02  .03   .97  .03   .99  .03   .99  .03  1.00  .03  1.01  .03  1.01  .03  1.01  .03  1.02  .05  1.01  .04  1.03  .04   .98  .04   .98  .03  1.00  .03   .99  .03  1.06  .05 -9.99 -.99 -9.99 -.99 -9.99 -.99 -9.99 -.99 -9.99 -.99 -9.99 -.99 1979-06-20 1 0
  790 ---          .83  .04 -9.99 -.99   .84  .06   .91  .03   .92  .03   .91  .03   .96  .03   .98  .03  1.03  .03   .97  .03  1.02  .03  1.03  .03  1.02 -.99  1.04  .03  1.08  .03  1.02  .03  1.02  .03 -9.99 -.99 -9.99 -.99 -9.99 -.99 -9.99 -.99 -9.99 -.99 -9.99 -.99 -9.99 -.99 -9.99 -.99 -9.99 -.99 1979-06-20 1 0
  801 ---         1.03  .14 -9.99 -.99   .88  .10   .92  .03   .98  .08   .93  .07   .93  .06  1.06  .06   .87  .08  1.05  .08  1.02  .03  1.15  .07  1.01  .01   .92  .07   .96  .18  1.12  .15 -9.99 -.99 -9.99 -.99 -9.99 -.99 -9.99 -.99 -9.99 -.99 -9.99 -.99 -9.99 -.99 -9.99 -.99 -9.99 -.99 -9.99 -.99 1979-06-20 1 0
  811 ---          .25  .17 -9.99 -.99   .57  .25   .69  .03   .82  .03  1.01  .03   .91  .03  1.05  .04   .97  .07  1.00  .05   .89  .07  1.07  .04  1.04  .11  1.09  .14  1.49  .07  1.04  .13   .99  .12   .93  .25  1.29  .29  1.29  .33 -9.99 -.99  1.24  .29 -9.99 -.99 -9.99 -.99 -9.99 -.99 -9.99 -.99 1979-06-20 1 0
  839 ---          .51  .07 -9.99 -.99   .55  .03   .72  .03   .76  .03   .85  .03   .89  .03   .93  .03  1.00  .05  1.02  .03  1.05  .03  1.17  .03  1.18  .09  1.15  .06  1.18  .04  1.16  .07  1.12  .12 -9.99 -.99 -9.99 -.99 -9.99 -.99 -9.99 -.99 -9.99 -.99 -9.99 -.99 -9.99 -.99 -9.99 -.99 -9.99 -.99 1979-06-20 1 0
  846 ---          .79  .03 -9.99 -.99   .98  .03   .88  .03   .99  .03   .97  .03  1.00  .03  1.03  .03  1.00  .03   .99  .03  1.00  .03  1.07  .03 -9.99 -.99  1.04  .06  1.04  .05  1.04  .03   .90  .03   .95  .03  1.04  .05   .99  .05 -9.99 -.99  1.07  .08  1.19  .16 -9.99 -.99 -9.99 -.99 -9.99 -.99 1979-06-20 1 0
  858 ---          .27  .15 -9.99 -.99   .65  .19   .63  .03   .78  .03   .82  .03   .87  .03  1.04  .05  1.00  .06  1.01  .04  1.08  .03  1.10  .04  1.29  .08  1.15  .08  1.31  .06  1.20  .09  1.26  .12 -9.99 -.99 -9.99 -.99 -9.99 -.99 -9.99 -.99 -9.99 -.99 -9.99 -.99 -9.99 -.99 -9.99 -.99 -9.99 -.99 1979-06-20 1 0
  884 ---        -9.99 -.99 -9.99 -.99   .89  .10   .91  .03   .94  .04   .93  .03   .93  .03   .95  .03  1.00  .03  1.06  .03   .99  .04  1.03  .03  1.09  .08  1.24  .04  1.04  .03  1.19  .06  1.16  .26 -9.99 -.99 -9.99 -.99 -9.99 -.99 -9.99 -.99 -9.99 -.99 -9.99 -.99 -9.99 -.99 -9.99 -.99 -9.99 -.99 1979-06-20 1 0
  887 ---          .37  .09   .43  .10   .61  .10   .70  .03   .75  .04   .87  .03   .87  .03   .95  .03  1.00  .03  1.04  .03  1.11  .03  1.13  .07  1.10  .04  1.14  .03  1.22  .03  1.05  .05  1.10  .04   .99  .06  1.05  .07   .99  .11  1.02  .07  1.23  .14  1.09  .06 -9.99 -.99  1.01  .06 -9.99 -.99 1979-06-20 1 0
  895 ---        -9.99 -.99 -9.99 -.99   .84  .12  1.00  .05   .96  .04   .95  .05  1.03  .04  1.02  .05  1.00  .03  1.02  .04  1.01  .04  1.11  .05  1.04  .03  1.03  .05  1.13  .04  1.00  .07  1.13  .08  1.02  .09  1.02  .07   .84  .10 -9.99 -.99 -9.99 -.99 -9.99 -.99 -9.99 -.99 -9.99 -.99 -9.99 -.99 1979-06-20 1 0
  909 ---          .80  .05 -9.99 -.99   .98  .10   .82  .03   .87  .04   .87  .03   .94  .05   .99  .04  1.00  .04   .99  .03  1.00  .07  1.02  .03 -9.99 -.99   .96  .09  1.05  .03  1.03  .05  1.01  .03  1.03  .04  1.14  .03  1.11  .05 -9.99 -.99  1.09  .09  1.21  .16 -9.99 -.99 -9.99 -.99 -9.99 -.99 1979-06-20 1 0
  911 ---        -9.99 -.99 -9.99 -.99   .49  .30   .80  .06   .80  .06   .95  .06  1.05  .07   .97  .06   .95  .06  1.10  .05  1.10  .06  1.14  .05  1.13  .06  1.14  .01 -9.99 -.99  1.23  .07  1.33  .10  1.45  .10  1.50  .15 -9.99 -.99 -9.99 -.99  1.20  .07 -9.99 -.99 -9.99 -.99 -9.99 -.99 -9.99 -.99 1979-06-20 1 0
  925 ---          .55  .04 -9.99 -.99   .60  .03   .71  .03   .79  .03   .89  .03   .93  .05   .99  .03   .97  .03  1.07  .03  1.11  .03  1.17  .03  1.18  .05  1.20  .03  1.25  .04  1.25  .03  1.11  .03  1.13  .03  1.23  .03  1.10  .03 -9.99 -.99  1.08  .06 -9.99 -.99 -9.99 -.99 -9.99 -.99 -9.99 -.99 1979-06-20 1 0
  944 ---          .86  .13 -9.99 -.99   .84  .13   .87  .05   .90  .04   .93  .03   .91  .03   .98  .04   .99  .03  1.02  .04  1.06  .04  1.12  .05  1.16  .04  1.16  .05  1.25  .05  1.23  .07  1.25  .08  1.16  .17  1.41  .20  1.21  .30 -9.99 -.99  1.63  .33  1.60  .20  1.25  .27 -9.99 -.99 -9.99 -.99 1979-06-20 1 0
  969 ---        -9.99 -.99 -9.99 -.99   .68  .17   .80  .10   .71  .22   .97  .08   .94  .08   .86  .08  1.28  .24  1.07  .11  1.00  .08   .96  .15   .83  .08  1.29  .09   .69  .14  1.04  .19  1.30  .27 -9.99 -.99 -9.99 -.99 -9.99 -.99 -9.99 -.99 -9.99 -.99 -9.99 -.99 -9.99 -.99 -9.99 -.99 -9.99 -.99 1979-06-20 1 0
  976 ---          .70  .29 -9.99 -.99   .89  .09   .88  .03   .83  .05   .96  .03   .93  .04  1.04  .05  1.02  .04   .92  .06   .95  .04   .99  .03  1.00  .06  1.02  .07   .93  .09  1.10  .09  1.14  .07 -9.99 -.99 -9.99 -.99 -9.99 -.99 -9.99 -.99 -9.99 -.99 -9.99 -.99 -9.99 -.99 -9.99 -.99 -9.99 -.99 1979-06-20 1 0
 1015 ---          .52  .14 -9.99 -.99   .77  .09   .94  .04   .97  .03   .96  .03   .98  .03   .98  .05  1.02  .03   .98  .03  1.01  .06  1.05  .04  1.04  .05  1.00  .05   .96  .03   .96  .03  1.06  .04 -9.99 -.99 -9.99 -.99 -9.99 -.99 -9.99 -.99 -9.99 -.99 -9.99 -.99 -9.99 -.99 -9.99 -.99 -9.99 -.99 1979-06-20 1 0
 1019 ---          .46  .09 -9.99 -.99   .68  .07   .63  .03   .71  .04   .80  .04   .77  .05   .92  .05  1.00  .08  1.03  .06  1.07  .07  1.21  .11  1.14  .09  1.25  .08  1.23  .11  1.17  .12  1.08  .26 -9.99 -.99 -9.99 -.99 -9.99 -.99 -9.99 -.99 -9.99 -.99 -9.99 -.99 -9.99 -.99 -9.99 -.99 -9.99 -.99 1979-06-20 1 0
 1025 ---          .52  .10 -9.99 -.99   .78  .17   .96  .06   .86  .05   .84  .03   .93  .03   .95  .05  1.10  .05   .92  .04  1.01  .06  1.10  .03  1.02  .05  1.05  .03  1.05  .04  1.09  .11   .89  .07  1.11  .08   .89  .11   .65  .12 -9.99 -.99  1.06  .14 -9.99 -.99 -9.99 -.99 -9.99 -.99 -9.99 -.99 1979-06-20 1 0
 1036 ---          .29  .45 -9.99 -.99   .55  .09   .74  .03   .77  .03   .85  .03   .90  .03   .98  .03  1.00  .03  1.05  .03  1.11  .03  1.09  .03  1.16  .06  1.15  .04  1.16  .04  1.15  .05  1.06  .06  1.05  .08  1.05  .07   .94  .12 -9.99 -.99 -9.99 -.99 -9.99 -.99 -9.99 -.99 -9.99 -.99 -9.99 -.99 1979-06-20 1 0
 1055 ---          .47  .03 -9.99 -.99   .65  .03   .65  .03   .74  .03   .79  .03   .84  .03   .99  .03  1.04  .03   .99  .03  1.10  .04  1.11  .03 -9.99 -.99  1.17  .05  1.20  .04  1.18  .04  1.06  .03  1.04  .03  1.05  .08  1.06  .05 -9.99 -.99   .96  .03   .88  .13 -9.99 -.99 -9.99 -.99 -9.99 -.99 1979-06-20 1 0
 1058 ---          .56  .22 -9.99 -.99   .67  .03   .71  .05   .77  .03   .88  .03   .88  .03   .95  .03  1.00  .05  1.02  .03  1.10  .03  1.07  .03  1.13  .08  1.23  .03  1.18  .04  1.11  .03  1.12  .07 -9.99 -.99 -9.99 -.99 -9.99 -.99 -9.99 -.99 -9.99 -.99 -9.99 -.99 -9.99 -.99 -9.99 -.99 -9.99 -.99 1979-06-20 1 0
 1075 ---        -9.99 -.99 -9.99 -.99   .48  .34   .79  .07   .89  .03   .97  .03   .98  .03   .92  .04  1.00  .08  1.03  .04  1.12  .06  1.07  .06  1.03  .08  1.17  .15  1.07  .08  1.14  .17  1.02  .13 -9.99 -.99 -9.99 -.99 -9.99 -.99 -9.99 -.99 -9.99 -.99 -9.99 -.99 -9.99 -.99 -9.99 -.99 -9.99 -.99 1979-06-20 1 0
 1088 ---          .54  .16 -9.99 -.99   .41  .11   .63  .03   .67  .04   .87  .05   .81  .03   .87  .04  1.10  .08   .99  .05   .96  .06  1.11  .08  1.03  .08  1.13  .06  1.11  .10  1.09  .08   .78  .11   .94  .15   .57  .08  1.03  .16 -9.99 -.99   .91  .20 -9.99 -.99 -9.99 -.99 -9.99 -.99 -9.99 -.99 1979-06-20 1 0
 1103 ---          .54  .43 -9.99 -.99  1.05  .27   .85  .06   .83  .05   .96  .07   .90  .05   .97  .03  1.00  .06   .99  .03   .95  .03  1.09  .06  1.08  .03  1.08  .10  1.09  .09  1.03  .05  1.00  .11   .98  .13  1.14  .11  1.36  .10 -9.99 -.99  1.32  .16 -9.99 -.99 -9.99 -.99 -9.99 -.99 -9.99 -.99 1979-06-20 1 0
 1162 ---          .64  .10 -9.99 -.99   .62  .12   .90  .04   .80  .05   .95  .03   .95  .03   .99  .03  1.05  .03   .94  .03   .98  .04  1.07  .03  1.00  .02  1.10  .05  1.13  .10  1.10  .08  1.00  .09  1.06  .07  1.02  .10  1.16  .20 -9.99 -.99  1.15  .09 -9.99 -.99 -9.99 -.99 -9.99 -.99 -9.99 -.99 1979-06-20 1 0
 1172 ---         1.02  .08 -9.99 -.99   .89  .06   .81  .03   .85  .03   .86  .04   .97  .03   .99  .04   .98  .03  1.05  .06  1.10  .04  1.06  .03  1.15  .02  1.20  .03  1.19  .05  1.06  .10  1.07  .39 -9.99 -.99 -9.99 -.99 -9.99 -.99 -9.99 -.99 -9.99 -.99 -9.99 -.99 -9.99 -.99 -9.99 -.99 -9.99 -.99 1979-06-20 1 0
 1173 ---          .99  .10 -9.99 -.99  1.07  .12   .88  .05   .85  .03   .96  .03   .95  .03  1.02  .03  1.00  .05   .93  .03  1.01  .03   .98  .05  1.08  .03  1.11  .06   .96  .06  1.00  .08 -9.99 -.99 -9.99 -.99 -9.99 -.99 -9.99 -.99 -9.99 -.99 -9.99 -.99 -9.99 -.99 -9.99 -.99 -9.99 -.99 -9.99 -.99 1979-06-20 1 0
 1199 ---          .86  .45 -9.99 -.99   .93  .20   .72  .04   .92  .04   .92  .03   .93  .03   .96  .05  1.00  .04  1.01  .03  1.10  .05  1.11  .03  1.12  .09  1.13  .05  1.29  .04  1.19  .12   .98  .06 -9.99 -.99 -9.99 -.99 -9.99 -.99 -9.99 -.99 -9.99 -.99 -9.99 -.99 -9.99 -.99 -9.99 -.99 -9.99 -.99 1979-06-20 1 0
 1208 ---          .82  .10 -9.99 -.99   .96  .06   .82  .03   .87  .03   .93  .06   .91  .04  1.03  .05  1.05  .04  1.00  .03  1.06  .04   .90  .05 -9.99 -.99   .96  .08  1.04  .05   .99  .10   .87  .09   .96  .09  1.05  .17  1.45  .22 -9.99 -.99   .89  .16 -9.99 -.99 -9.99 -.99 -9.99 -.99 -9.99 -.99 1979-06-20 1 0
 1212 ---         1.20  .19 -9.99 -.99   .89  .18   .93  .12   .96  .09   .90  .10   .91  .06  1.04  .09  1.00  .10   .95  .14   .97  .08   .82  .08  1.04  .12   .75  .17  1.05  .32   .87  .35 -9.99 -.99 -9.99 -.99 -9.99 -.99 -9.99 -.99 -9.99 -.99 -9.99 -.99 -9.99 -.99 -9.99 -.99 -9.99 -.99 -9.99 -.99 1979-06-20 1 0
 1263 ---         1.00  .46 -9.99 -.99   .71  .24   .94  .07   .88  .03   .93  .05   .87  .03   .91  .04  1.09  .05   .94  .03  1.10  .05  1.00  .07  1.03  .03  1.09  .09  1.04  .07   .91  .07   .89  .13 -9.99 -.99 -9.99 -.99 -9.99 -.99 -9.99 -.99 -9.99 -.99 -9.99 -.99 -9.99 -.99 -9.99 -.99 -9.99 -.99 1979-06-20 1 0
 1284 ---          .67  .15 -9.99 -.99   .66  .09   .84  .03   .92  .03   .87  .03   .93  .04   .99  .03  1.00  .03  1.05  .03  1.12  .03  1.10  .03  1.14  .04  1.21  .05  1.17  .06  1.21  .07  1.24  .07 -9.99 -.99 -9.99 -.99 -9.99 -.99 -9.99 -.99 -9.99 -.99 -9.99 -.99 -9.99 -.99 -9.99 -.99 -9.99 -.99 1979-06-20 1 0
 1317 ---        -9.99 -.99 -9.99 -.99   .46  .13   .87  .14   .93  .11   .94  .03   .97  .08   .98  .05   .91  .16  1.19  .13  1.03  .12  1.01  .06   .95  .11   .85  .07   .87  .11   .94  .17   .85  .11 -9.99 -.99 -9.99 -.99 -9.99 -.99 -9.99 -.99 -9.99 -.99 -9.99 -.99 -9.99 -.99 -9.99 -.99 -9.99 -.99 1979-06-20 1 0
 1330 ---          .70  .35 -9.99 -.99   .40  .32  1.05  .07  1.02  .05   .92  .03   .95  .03   .97  .06  1.00  .04   .99  .06   .96  .03   .99  .04  1.04 -.99  1.15  .09  1.05  .08  1.04  .06  1.24  .09 -9.99 -.99 -9.99 -.99 -9.99 -.99 -9.99 -.99 -9.99 -.99 -9.99 -.99 -9.99 -.99 -9.99 -.99 -9.99 -.99 1979-06-20 1 0
 1364 ---          .73  .21 -9.99 -.99   .66  .18   .81  .08   .93  .05   .84  .05   .84  .03   .88  .08  1.13  .09  1.03  .04  1.00  .12  1.04  .06 -9.99 -.99   .86  .14  1.22  .11  1.16  .09   .93  .10  1.20  .21   .97  .15  1.06  .25 -9.99 -.99 -9.99 -.99 -9.99 -.99 -9.99 -.99 -9.99 -.99 -9.99 -.99 1979-06-20 1 0
 1449 ---          .48  .06 -9.99 -.99   .65  .05   .67  .03   .72  .04   .87  .03   .86  .03   .99  .05  1.10  .06   .99  .05  1.06  .03  1.11  .04  1.28  .09  1.14  .05  1.22  .05  1.25  .05  1.12  .07  1.36  .03  1.27  .12  1.27  .14 -9.99 -.99  1.39  .09 -9.99 -.99 -9.99 -.99 -9.99 -.99 -9.99 -.99 1979-06-20 1 0
 1493 ---          .65  .13 -9.99 -.99   .72  .24  1.02  .03  1.08  .06   .96  .03  1.01  .05  1.06  .05  1.00  .05  1.04  .03   .96  .05   .94  .03   .92  .03   .97  .03  1.01  .03   .96  .05  1.00  .05 -9.99 -.99 -9.99 -.99 -9.99 -.99 -9.99 -.99 -9.99 -.99 -9.99 -.99 -9.99 -.99 -9.99 -.99 -9.99 -.99 1979-06-20 1 0
 1512 ---          .79  .24 -9.99 -.99   .93  .13   .98  .03   .87  .03   .99  .03   .99  .03  1.00  .03   .97  .06  1.00  .04  1.14  .04  1.09  .04  1.27  .02  1.23  .05  1.27  .08  1.26  .10  1.22  .08  1.34  .14  1.33  .09  1.34  .18 -9.99 -.99  1.52  .08 -9.99 -.99 -9.99 -.99 -9.99 -.99 -9.99 -.99 1979-06-20 1 0
 1529 ---          .56  .19 -9.99 -.99 -9.99 -.99  1.00  .07   .74  .04   .88  .04   .96  .03   .85  .04   .85  .05  1.15  .06  1.04  .06  1.15  .04  1.20  .04  1.22  .09  1.27  .04  1.15  .05  1.21  .12 -9.99 -.99 -9.99 -.99 -9.99 -.99 -9.99 -.99 -9.99 -.99 -9.99 -.99 -9.99 -.99 -9.99 -.99 -9.99 -.99 1979-06-20 1 0
 1566 ---        -9.99 -.99 -9.99 -.99 -9.99 -.99   .82  .10   .96  .06   .88  .06   .94  .05  1.04  .06  1.05  .05   .98  .04  1.06  .04  1.05  .05  1.06  .07  1.10  .07  1.06  .06   .98  .09  1.00  .08 -9.99 -.99 -9.99 -.99 -9.99 -.99 -9.99 -.99 -9.99 -.99 -9.99 -.99 -9.99 -.99 -9.99 -.99 -9.99 -.99 1979-06-20 1 0
 1580 ---          .83  .03 -9.99 -.99   .85  .03   .94  .03   .97  .03   .98  .03   .95  .03  1.00  .03  1.00  .03   .99  .03  1.00  .03  1.00  .03  1.02 -.99   .97  .03   .99  .03   .97  .03   .96  .03   .92  .03   .93  .03   .90  .03 -9.99 -.99   .91  .04 -9.99 -.99 -9.99 -.99 -9.99 -.99 -9.99 -.99 1979-06-20 1 0
 1595 ---        -9.99 -.99 -9.99 -.99 -9.99 -.99   .78  .07   .82  .05   .88  .06   .91  .03  1.08  .05  1.00  .06   .93  .03  1.03  .07  1.02  .04  1.03  .08   .99  .06  1.01  .15   .77  .10  1.10  .20 -9.99 -.99 -9.99 -.99 -9.99 -.99 -9.99 -.99 -9.99 -.99 -9.99 -.99 -9.99 -.99 -9.99 -.99 -9.99 -.99 1979-06-20 1 0
 1620 ---          .42  .16 -9.99 -.99   .64  .11   .75  .06   .80  .05   .82  .03   .87  .03   .91  .03  1.02  .04  1.02  .05  1.07  .03  1.09  .05  1.15 -.99  1.22  .05  1.13  .06  1.15  .06  1.10  .07 -9.99 -.99 -9.99 -.99 -9.99 -.99 -9.99 -.99 -9.99 -.99 -9.99 -.99 -9.99 -.99 -9.99 -.99 -9.99 -.99 1979-06-20 1 0
 1627 ---          .56  .09   .65  .12   .68  .06   .80  .04   .90  .07   .91  .04   .99  .03  1.16  .08  1.00  .05  1.02  .04  1.20  .06  1.20  .05  1.08  .06  1.19  .08  1.08  .07  1.20  .08   .99  .08   .94  .08   .82  .13   .85  .14 -9.99 -.99   .78  .11 -9.99 -.99 -9.99 -.99 -9.99 -.99 -9.99 -.99 1986-05-13 2 1
 1636 ---          .59  .08 -9.99 -.99   .52  .10   .67  .08   .76  .08   .83  .04   .86  .04   .95  .07  1.05  .08  1.00  .03  1.08  .04  1.19  .06  1.12  .06  1.31  .03  1.45  .03  1.23  .08 -9.99 -.99 -9.99 -.99 -9.99 -.99 -9.99 -.99 -9.99 -.99 -9.99 -.99 -9.99 -.99 -9.99 -.99 -9.99 -.99 -9.99 -.99 1979-06-20 1 0
 1645 ---        -9.99 -.99 -9.99 -.99   .89  .27   .82  .07  1.05  .06   .90  .03   .94  .03  1.10  .03  1.00  .08   .94  .03   .99  .08  1.03  .04  1.18  .07  1.06  .05  1.12  .09  1.31  .15  1.22  .16 -9.99 -.99 -9.99 -.99 -9.99 -.99 -9.99 -.99 -9.99 -.99 -9.99 -.99 -9.99 -.99 -9.99 -.99 -9.99 -.99 1979-06-20 1 0
 1656 ---          .22  .20 -9.99 -.99   .45  .11   .54  .06   .66  .03   .72  .03   .79  .04   .95  .08  1.00  .03  1.02  .05  1.18  .09  1.13  .04  1.12  .06  1.07  .07  1.15  .03  1.32  .12  1.27  .06   .89  .13  1.13  .24   .87  .12 -9.99 -.99  1.15  .22 -9.99 -.99 -9.99 -.99 -9.99 -.99 -9.99 -.99 1979-06-20 1 0
 1685 ---          .72  .20   .64  .10   .58  .07   .71  .03   .69  .04   .85  .05   .80  .03   .95  .04  1.00  .05  1.02  .03  1.11  .04  1.20  .05  1.17  .03  1.13  .03  1.16  .07  1.13  .05 -9.99 -.99  1.06  .06  1.00  .05 -9.99 -.99   .97  .07 -9.99 -.99   .95  .07 -9.99 -.99  1.18  .12 -9.99 -.99 1979-06-20 1 0
 1685 ---          .34  .04   .45  .04   .50  .03   .67  .04   .75  .04   .86  .03   .89  .03   .93  .04  1.00  .04  1.07  .04  1.03  .03  1.10  .03  1.04  .04   .99  .03   .98  .04   .93  .03   .91  .04   .89  .04   .78  .04   .79  .04 -9.99 -.99   .79  .06 -9.99 -.99 -9.99 -.99 -9.99 -.99 -9.99 -.99 1986-05-13 2 0
 1717 ---          .58  .16 -9.99 -.99   .62  .07   .79  .05   .92  .08   .85  .04   .90  .06   .96  .05  1.00  .05  1.04  .03  1.12  .06  1.12  .07  1.23  .07  1.23  .06  1.37  .07  1.21  .06  1.49  .29 -9.99 -.99 -9.99 -.99 -9.99 -.99 -9.99 -.99 -9.99 -.99 -9.99 -.99 -9.99 -.99 -9.99 -.99 -9.99 -.99 1979-06-20 1 0
 1727 ---          .50  .17 -9.99 -.99   .56  .15   .74  .07   .85  .03   .87  .05   .89  .07  1.02  .07   .97  .06  1.02  .06  1.06  .04  1.04  .03  1.11  .07  1.15  .06  1.34  .10  1.28  .11  1.20  .09  1.10  .14  1.00  .14  1.25  .21 -9.99 -.99 -9.99 -.99 -9.99 -.99 -9.99 -.99 -9.99 -.99 -9.99 -.99 1979-06-20 1 0
 1830 ---          .48  .14 -9.99 -.99   .68  .19   .75  .10   .64  .07   .84  .03   .84  .03   .94  .04  1.00  .06  1.18  .08  1.14  .03  1.09  .04  1.29 -.99  1.24  .12  1.16  .14   .95  .15  1.   -.99 -9.99 -.99 -9.99 -.99 -9.99 -.99 -9.99 -.99 -9.99 -.99 -9.99 -.99 -9.99 -.99 -9.99 -.99 -9.99 -.99 1979-06-20 1 0
 1862 ---          .54  .05   .53  .04   .61  .03   .74  .02   .78  .04   .85  .02   .92  .01 -9.99 -.99  1.04  .02  1.04  .03  1.09  .02  1.11  .02  1.15  .04  1.13  .02  1.10  .04  1.07  .03  1.01  .03   .97  .02  1.01  .02   .94  .03 -9.99 -.99   .94  .02 -9.99 -.99 -9.99 -.99 -9.99 -.99 -9.99 -.99 1986-05-13 2 0
 1865 ---        -9.99 -.99 -9.99 -.99 -9.99 -.99 -9.99 -.99 -9.99 -.99 -9.99 -.99 -9.99 -.99 -9.99 -.99 -9.99 -.99 -9.99 -.99 -9.99 -.99 -9.99 -.99 -9.99 -.99 -9.99 -.99 -9.99 -.99 -9.99 -.99 -9.99 -.99 -9.99 -.99 -9.99 -.99 -9.99 -.99 -9.99 -.99 -9.99 -.99 -9.99 -.99 -9.99 -.99 -9.99 -.99 -9.99 -.99 9999-99-99 2 2
 1915 ---          .38  .14   .36  .20   .59  .04   .73  .04   .76  .05   .92  .03  1.01  .03 -9.99 -.99   .99  .02   .99  .03  1.04  .03  1.05  .04  1.15  .07  1.08  .06  1.31  .20  1.03  .06   .90  .06   .75  .08   .74  .05   .79  .10 -9.99 -.99  1.02  .20 -9.99 -.99 -9.99 -.99 -9.99 -.99 -9.99 -.99 1986-05-13 2 0
 2100 ---          .63  .23   .33  .30   .82  .04   .88  .03 -9.99 -.99   .94  .03   .96  .02   .96  .03  1.05  .02  1.01  .03  1.13  .02  1.09  .02  1.05  .02  1.10  .02  1.11  .04  1.01  .05  1.12  .07  1.09  .05  1.14  .07 -9.99 -.99 -9.99 -.99  1.06  .30 -9.99 -.99 -9.99 -.99 -9.99 -.99 -9.99 -.99 1986-05-13 2 0
 2201 ---         1.73  .16  1.19  .13   .92  .06   .77  .05   .77  .05   .88  .03   .92  .03   .89  .05   .99  .04  1.11  .04  1.02  .04   .95  .04   .85  .04   .96  .05   .85  .04   .95  .04   .89  .04   .97  .05 -9.99 -.99 -9.99 -.99 -9.99 -.99 -9.99 -.99 -9.99 -.99 -9.99 -.99 -9.99 -.99 -9.99 -.99 1986-05-13 2 0
 3102 ---          .54  .03   .68  .01   .63  .01   .75  .01 -9.99 -.99   .81  .01   .90  .01   .92  .01  1.04  .01  1.03  .01  1.13  .01  1.05  .02  1.08  .01  1.19  .01  1.16  .02  1.14  .04   .96  .03  1.23  .04  1.06  .02  1.10  .06 -9.99 -.99   .99  .04 -9.99 -.99 -9.99 -.99 -9.99 -.99 -9.99 -.99 1986-05-13 2 3
 5797 1980 AA      .75  .08   .93  .09   .83  .05   .92  .06   .88  .05   .90  .02   .95  .03  1.07  .04   .98  .02  1.02  .02  1.02  .03  1.07  .03  1.04  .04  1.12  .03  1.15  .06  1.04  .04   .93  .04   .90  .03   .98  .04   .87  .04 -9.99 -.99  1.05  .05 -9.99 -.99 -9.99 -.99 -9.99 -.99 -9.99 -.99 1986-05-13 2 0
